('\\\\Mac\\Home\\Desktop\\unlock-captcha-tw\\dist\\main.exe',
 True,
 False,
 False,
 'c:\\users\\ngothuan\\appdata\\local\\programs\\python\\python38\\lib\\site-packages\\PyInstaller\\bootloader\\images\\icon-console.ico',
 None,
 False,
 False,
 b'<?xml version="1.0" encoding="UTF-8" standalone="yes"?>\n<assembly xmlns='
 b'"urn:schemas-microsoft-com:asm.v1" manifestVersion="1.0">\n  <trustInfo x'
 b'mlns="urn:schemas-microsoft-com:asm.v3">\n    <security>\n      <requested'
 b'Privileges>\n        <requestedExecutionLevel level="asInvoker" uiAccess='
 b'"false"/>\n      </requestedPrivileges>\n    </security>\n  </trustInfo>\n  '
 b'<compatibility xmlns="urn:schemas-microsoft-com:compatibility.v1">\n    <'
 b'application>\n      <supportedOS Id="{e2011457-1546-43c5-a5fe-008deee3d3f'
 b'0}"/>\n      <supportedOS Id="{35138b9a-5d96-4fbd-8e2d-a2440225f93a}"/>\n '
 b'     <supportedOS Id="{4a2f28e3-53b9-4441-ba9c-d69d4a4a6e38}"/>\n      <s'
 b'upportedOS Id="{1f676c76-80e1-4239-95bb-83d0f6d0da78}"/>\n      <supporte'
 b'dOS Id="{8e0f7a12-bfb3-4fe8-b9a5-48fd50a15a9a}"/>\n    </application>\n  <'
 b'/compatibility>\n  <application xmlns="urn:schemas-microsoft-com:asm.v3">'
 b'\n    <windowsSettings>\n      <longPathAware xmlns="http://schemas.micros'
 b'oft.com/SMI/2016/WindowsSettings">true</longPathAware>\n    </windowsSett'
 b'ings>\n  </application>\n  <dependency>\n    <dependentAssembly>\n      <ass'
 b'emblyIdentity type="win32" name="Microsoft.Windows.Common-Controls" version='
 b'"6.0.0.0" processorArchitecture="*" publicKeyToken="6595b64144ccf1df" langua'
 b'ge="*"/>\n    </dependentAssembly>\n  </dependency>\n</assembly>',
 True,
 False,
 None,
 None,
 None,
 '\\\\Mac\\Home\\Desktop\\unlock-captcha-tw\\build\\main\\main.pkg',
 [('pyi-contents-directory _internal', '', 'OPTION'),
  ('PYZ-00.pyz',
   '\\\\Mac\\Home\\Desktop\\unlock-captcha-tw\\build\\main\\PYZ-00.pyz',
   'PYZ'),
  ('struct',
   '\\\\Mac\\Home\\Desktop\\unlock-captcha-tw\\build\\main\\localpycs\\struct.pyc',
   'PYMODULE'),
  ('pyimod01_archive',
   '\\\\Mac\\Home\\Desktop\\unlock-captcha-tw\\build\\main\\localpycs\\pyimod01_archive.pyc',
   'PYMODULE'),
  ('pyimod02_importers',
   '\\\\Mac\\Home\\Desktop\\unlock-captcha-tw\\build\\main\\localpycs\\pyimod02_importers.pyc',
   'PYMODULE'),
  ('pyimod03_ctypes',
   '\\\\Mac\\Home\\Desktop\\unlock-captcha-tw\\build\\main\\localpycs\\pyimod03_ctypes.pyc',
   'PYMODULE'),
  ('pyimod04_pywin32',
   '\\\\Mac\\Home\\Desktop\\unlock-captcha-tw\\build\\main\\localpycs\\pyimod04_pywin32.pyc',
   'PYMODULE'),
  ('pyiboot01_bootstrap',
   'c:\\users\\ngothuan\\appdata\\local\\programs\\python\\python38\\lib\\site-packages\\PyInstaller\\loader\\pyiboot01_bootstrap.py',
   'PYSOURCE'),
  ('pyi_rth_inspect',
   'C:\\Users\\ngothuan\\AppData\\Local\\Programs\\Python\\Python38\\Lib\\site-packages\\PyInstaller\\hooks\\rthooks\\pyi_rth_inspect.py',
   'PYSOURCE'),
  ('pyi_rth_pkgutil',
   'C:\\Users\\ngothuan\\AppData\\Local\\Programs\\Python\\Python38\\Lib\\site-packages\\PyInstaller\\hooks\\rthooks\\pyi_rth_pkgutil.py',
   'PYSOURCE'),
  ('pyi_rth_multiprocessing',
   'C:\\Users\\ngothuan\\AppData\\Local\\Programs\\Python\\Python38\\Lib\\site-packages\\PyInstaller\\hooks\\rthooks\\pyi_rth_multiprocessing.py',
   'PYSOURCE'),
  ('pyi_rth_pyqt6',
   'C:\\Users\\ngothuan\\AppData\\Local\\Programs\\Python\\Python38\\Lib\\site-packages\\PyInstaller\\hooks\\rthooks\\pyi_rth_pyqt6.py',
   'PYSOURCE'),
  ('main', '\\\\Mac\\Home\\Desktop\\unlock-captcha-tw\\main.py', 'PYSOURCE'),
  ('selenium\\webdriver\\common\\windows\\selenium-manager.exe',
   'c:\\users\\ngothuan\\appdata\\local\\programs\\python\\python38\\lib\\site-packages\\selenium\\webdriver\\common\\windows\\selenium-manager.exe',
   'BINARY'),
  ('python38.dll',
   'c:\\users\\ngothuan\\appdata\\local\\programs\\python\\python38\\python38.dll',
   'BINARY'),
  ('libopenblas64__v0.3.21-gcc_10_3_0.dll',
   'c:\\users\\ngothuan\\appdata\\local\\programs\\python\\python38\\lib\\site-packages\\numpy\\.libs\\libopenblas64__v0.3.21-gcc_10_3_0.dll',
   'BINARY'),
  ('PyQt6\\Qt6\\plugins\\platforms\\qoffscreen.dll',
   'C:\\users\\ngothuan\\appdata\\local\\programs\\python\\python38\\lib\\site-packages\\PyQt6\\Qt6\\plugins\\platforms\\qoffscreen.dll',
   'BINARY'),
  ('PyQt6\\Qt6\\plugins\\imageformats\\qico.dll',
   'C:\\users\\ngothuan\\appdata\\local\\programs\\python\\python38\\lib\\site-packages\\PyQt6\\Qt6\\plugins\\imageformats\\qico.dll',
   'BINARY'),
  ('PyQt6\\Qt6\\plugins\\imageformats\\qjpeg.dll',
   'C:\\users\\ngothuan\\appdata\\local\\programs\\python\\python38\\lib\\site-packages\\PyQt6\\Qt6\\plugins\\imageformats\\qjpeg.dll',
   'BINARY'),
  ('PyQt6\\Qt6\\plugins\\imageformats\\qtiff.dll',
   'C:\\users\\ngothuan\\appdata\\local\\programs\\python\\python38\\lib\\site-packages\\PyQt6\\Qt6\\plugins\\imageformats\\qtiff.dll',
   'BINARY'),
  ('PyQt6\\Qt6\\plugins\\iconengines\\qsvgicon.dll',
   'C:\\users\\ngothuan\\appdata\\local\\programs\\python\\python38\\lib\\site-packages\\PyQt6\\Qt6\\plugins\\iconengines\\qsvgicon.dll',
   'BINARY'),
  ('PyQt6\\Qt6\\plugins\\imageformats\\qicns.dll',
   'C:\\users\\ngothuan\\appdata\\local\\programs\\python\\python38\\lib\\site-packages\\PyQt6\\Qt6\\plugins\\imageformats\\qicns.dll',
   'BINARY'),
  ('PyQt6\\Qt6\\plugins\\imageformats\\qwebp.dll',
   'C:\\users\\ngothuan\\appdata\\local\\programs\\python\\python38\\lib\\site-packages\\PyQt6\\Qt6\\plugins\\imageformats\\qwebp.dll',
   'BINARY'),
  ('PyQt6\\Qt6\\plugins\\imageformats\\qgif.dll',
   'C:\\users\\ngothuan\\appdata\\local\\programs\\python\\python38\\lib\\site-packages\\PyQt6\\Qt6\\plugins\\imageformats\\qgif.dll',
   'BINARY'),
  ('PyQt6\\Qt6\\plugins\\imageformats\\qpdf.dll',
   'C:\\users\\ngothuan\\appdata\\local\\programs\\python\\python38\\lib\\site-packages\\PyQt6\\Qt6\\plugins\\imageformats\\qpdf.dll',
   'BINARY'),
  ('PyQt6\\Qt6\\plugins\\platforms\\qminimal.dll',
   'C:\\users\\ngothuan\\appdata\\local\\programs\\python\\python38\\lib\\site-packages\\PyQt6\\Qt6\\plugins\\platforms\\qminimal.dll',
   'BINARY'),
  ('PyQt6\\Qt6\\plugins\\imageformats\\qsvg.dll',
   'C:\\users\\ngothuan\\appdata\\local\\programs\\python\\python38\\lib\\site-packages\\PyQt6\\Qt6\\plugins\\imageformats\\qsvg.dll',
   'BINARY'),
  ('PyQt6\\Qt6\\plugins\\platforms\\qwindows.dll',
   'C:\\users\\ngothuan\\appdata\\local\\programs\\python\\python38\\lib\\site-packages\\PyQt6\\Qt6\\plugins\\platforms\\qwindows.dll',
   'BINARY'),
  ('PyQt6\\Qt6\\plugins\\generic\\qtuiotouchplugin.dll',
   'C:\\users\\ngothuan\\appdata\\local\\programs\\python\\python38\\lib\\site-packages\\PyQt6\\Qt6\\plugins\\generic\\qtuiotouchplugin.dll',
   'BINARY'),
  ('PyQt6\\Qt6\\plugins\\imageformats\\qtga.dll',
   'C:\\users\\ngothuan\\appdata\\local\\programs\\python\\python38\\lib\\site-packages\\PyQt6\\Qt6\\plugins\\imageformats\\qtga.dll',
   'BINARY'),
  ('PyQt6\\Qt6\\plugins\\imageformats\\qwbmp.dll',
   'C:\\users\\ngothuan\\appdata\\local\\programs\\python\\python38\\lib\\site-packages\\PyQt6\\Qt6\\plugins\\imageformats\\qwbmp.dll',
   'BINARY'),
  ('PyQt6\\Qt6\\plugins\\styles\\qwindowsvistastyle.dll',
   'C:\\users\\ngothuan\\appdata\\local\\programs\\python\\python38\\lib\\site-packages\\PyQt6\\Qt6\\plugins\\styles\\qwindowsvistastyle.dll',
   'BINARY'),
  ('PyQt6\\Qt6\\bin\\opengl32sw.dll',
   'C:\\Users\\ngothuan\\AppData\\Local\\Programs\\Python\\Python38\\Lib\\site-packages\\PyQt6\\Qt6\\bin\\opengl32sw.dll',
   'BINARY'),
  ('select.pyd',
   'c:\\users\\ngothuan\\appdata\\local\\programs\\python\\python38\\DLLs\\select.pyd',
   'EXTENSION'),
  ('_hashlib.pyd',
   'c:\\users\\ngothuan\\appdata\\local\\programs\\python\\python38\\DLLs\\_hashlib.pyd',
   'EXTENSION'),
  ('_lzma.pyd',
   'c:\\users\\ngothuan\\appdata\\local\\programs\\python\\python38\\DLLs\\_lzma.pyd',
   'EXTENSION'),
  ('_bz2.pyd',
   'c:\\users\\ngothuan\\appdata\\local\\programs\\python\\python38\\DLLs\\_bz2.pyd',
   'EXTENSION'),
  ('pyexpat.pyd',
   'c:\\users\\ngothuan\\appdata\\local\\programs\\python\\python38\\DLLs\\pyexpat.pyd',
   'EXTENSION'),
  ('_ssl.pyd',
   'c:\\users\\ngothuan\\appdata\\local\\programs\\python\\python38\\DLLs\\_ssl.pyd',
   'EXTENSION'),
  ('unicodedata.pyd',
   'c:\\users\\ngothuan\\appdata\\local\\programs\\python\\python38\\DLLs\\unicodedata.pyd',
   'EXTENSION'),
  ('_decimal.pyd',
   'c:\\users\\ngothuan\\appdata\\local\\programs\\python\\python38\\DLLs\\_decimal.pyd',
   'EXTENSION'),
  ('_multiprocessing.pyd',
   'c:\\users\\ngothuan\\appdata\\local\\programs\\python\\python38\\DLLs\\_multiprocessing.pyd',
   'EXTENSION'),
  ('_socket.pyd',
   'c:\\users\\ngothuan\\appdata\\local\\programs\\python\\python38\\DLLs\\_socket.pyd',
   'EXTENSION'),
  ('_ctypes.pyd',
   'c:\\users\\ngothuan\\appdata\\local\\programs\\python\\python38\\DLLs\\_ctypes.pyd',
   'EXTENSION'),
  ('_queue.pyd',
   'c:\\users\\ngothuan\\appdata\\local\\programs\\python\\python38\\DLLs\\_queue.pyd',
   'EXTENSION'),
  ('charset_normalizer\\md__mypyc.cp38-win_amd64.pyd',
   'c:\\users\\ngothuan\\appdata\\local\\programs\\python\\python38\\lib\\site-packages\\charset_normalizer\\md__mypyc.cp38-win_amd64.pyd',
   'EXTENSION'),
  ('charset_normalizer\\md.cp38-win_amd64.pyd',
   'c:\\users\\ngothuan\\appdata\\local\\programs\\python\\python38\\lib\\site-packages\\charset_normalizer\\md.cp38-win_amd64.pyd',
   'EXTENSION'),
  ('numpy\\core\\_multiarray_tests.cp38-win_amd64.pyd',
   'c:\\users\\ngothuan\\appdata\\local\\programs\\python\\python38\\lib\\site-packages\\numpy\\core\\_multiarray_tests.cp38-win_amd64.pyd',
   'EXTENSION'),
  ('numpy\\core\\_multiarray_umath.cp38-win_amd64.pyd',
   'c:\\users\\ngothuan\\appdata\\local\\programs\\python\\python38\\lib\\site-packages\\numpy\\core\\_multiarray_umath.cp38-win_amd64.pyd',
   'EXTENSION'),
  ('numpy\\linalg\\lapack_lite.cp38-win_amd64.pyd',
   'c:\\users\\ngothuan\\appdata\\local\\programs\\python\\python38\\lib\\site-packages\\numpy\\linalg\\lapack_lite.cp38-win_amd64.pyd',
   'EXTENSION'),
  ('_overlapped.pyd',
   'c:\\users\\ngothuan\\appdata\\local\\programs\\python\\python38\\DLLs\\_overlapped.pyd',
   'EXTENSION'),
  ('_asyncio.pyd',
   'c:\\users\\ngothuan\\appdata\\local\\programs\\python\\python38\\DLLs\\_asyncio.pyd',
   'EXTENSION'),
  ('numpy\\random\\mtrand.cp38-win_amd64.pyd',
   'c:\\users\\ngothuan\\appdata\\local\\programs\\python\\python38\\lib\\site-packages\\numpy\\random\\mtrand.cp38-win_amd64.pyd',
   'EXTENSION'),
  ('numpy\\random\\_sfc64.cp38-win_amd64.pyd',
   'c:\\users\\ngothuan\\appdata\\local\\programs\\python\\python38\\lib\\site-packages\\numpy\\random\\_sfc64.cp38-win_amd64.pyd',
   'EXTENSION'),
  ('numpy\\random\\_philox.cp38-win_amd64.pyd',
   'c:\\users\\ngothuan\\appdata\\local\\programs\\python\\python38\\lib\\site-packages\\numpy\\random\\_philox.cp38-win_amd64.pyd',
   'EXTENSION'),
  ('numpy\\random\\_pcg64.cp38-win_amd64.pyd',
   'c:\\users\\ngothuan\\appdata\\local\\programs\\python\\python38\\lib\\site-packages\\numpy\\random\\_pcg64.cp38-win_amd64.pyd',
   'EXTENSION'),
  ('numpy\\random\\_mt19937.cp38-win_amd64.pyd',
   'c:\\users\\ngothuan\\appdata\\local\\programs\\python\\python38\\lib\\site-packages\\numpy\\random\\_mt19937.cp38-win_amd64.pyd',
   'EXTENSION'),
  ('numpy\\random\\bit_generator.cp38-win_amd64.pyd',
   'c:\\users\\ngothuan\\appdata\\local\\programs\\python\\python38\\lib\\site-packages\\numpy\\random\\bit_generator.cp38-win_amd64.pyd',
   'EXTENSION'),
  ('numpy\\random\\_generator.cp38-win_amd64.pyd',
   'c:\\users\\ngothuan\\appdata\\local\\programs\\python\\python38\\lib\\site-packages\\numpy\\random\\_generator.cp38-win_amd64.pyd',
   'EXTENSION'),
  ('numpy\\random\\_bounded_integers.cp38-win_amd64.pyd',
   'c:\\users\\ngothuan\\appdata\\local\\programs\\python\\python38\\lib\\site-packages\\numpy\\random\\_bounded_integers.cp38-win_amd64.pyd',
   'EXTENSION'),
  ('numpy\\random\\_common.cp38-win_amd64.pyd',
   'c:\\users\\ngothuan\\appdata\\local\\programs\\python\\python38\\lib\\site-packages\\numpy\\random\\_common.cp38-win_amd64.pyd',
   'EXTENSION'),
  ('numpy\\fft\\_pocketfft_internal.cp38-win_amd64.pyd',
   'c:\\users\\ngothuan\\appdata\\local\\programs\\python\\python38\\lib\\site-packages\\numpy\\fft\\_pocketfft_internal.cp38-win_amd64.pyd',
   'EXTENSION'),
  ('numpy\\linalg\\_umath_linalg.cp38-win_amd64.pyd',
   'c:\\users\\ngothuan\\appdata\\local\\programs\\python\\python38\\lib\\site-packages\\numpy\\linalg\\_umath_linalg.cp38-win_amd64.pyd',
   'EXTENSION'),
  ('PyQt6\\QtGui.pyd',
   'c:\\users\\ngothuan\\appdata\\local\\programs\\python\\python38\\lib\\site-packages\\PyQt6\\QtGui.pyd',
   'EXTENSION'),
  ('PyQt6\\QtCore.pyd',
   'c:\\users\\ngothuan\\appdata\\local\\programs\\python\\python38\\lib\\site-packages\\PyQt6\\QtCore.pyd',
   'EXTENSION'),
  ('PyQt6\\QtWidgets.pyd',
   'c:\\users\\ngothuan\\appdata\\local\\programs\\python\\python38\\lib\\site-packages\\PyQt6\\QtWidgets.pyd',
   'EXTENSION'),
  ('PyQt6\\sip.cp38-win_amd64.pyd',
   'c:\\users\\ngothuan\\appdata\\local\\programs\\python\\python38\\lib\\site-packages\\PyQt6\\sip.cp38-win_amd64.pyd',
   'EXTENSION'),
  ('VCRUNTIME140.dll',
   'c:\\users\\ngothuan\\appdata\\local\\programs\\python\\python38\\VCRUNTIME140.dll',
   'BINARY'),
  ('PyQt6\\Qt6\\bin\\Qt6Gui.dll',
   'c:\\users\\ngothuan\\appdata\\local\\programs\\python\\python38\\lib\\site-packages\\PyQt6\\Qt6\\bin\\Qt6Gui.dll',
   'BINARY'),
  ('PyQt6\\Qt6\\bin\\Qt6Core.dll',
   'c:\\users\\ngothuan\\appdata\\local\\programs\\python\\python38\\lib\\site-packages\\PyQt6\\Qt6\\bin\\Qt6Core.dll',
   'BINARY'),
  ('PyQt6\\Qt6\\bin\\Qt6Svg.dll',
   'c:\\users\\ngothuan\\appdata\\local\\programs\\python\\python38\\lib\\site-packages\\PyQt6\\Qt6\\bin\\Qt6Svg.dll',
   'BINARY'),
  ('PyQt6\\Qt6\\bin\\Qt6Pdf.dll',
   'c:\\users\\ngothuan\\appdata\\local\\programs\\python\\python38\\lib\\site-packages\\PyQt6\\Qt6\\bin\\Qt6Pdf.dll',
   'BINARY'),
  ('PyQt6\\Qt6\\bin\\MSVCP140.dll',
   'c:\\users\\ngothuan\\appdata\\local\\programs\\python\\python38\\lib\\site-packages\\PyQt6\\Qt6\\bin\\MSVCP140.dll',
   'BINARY'),
  ('VCRUNTIME140_1.dll',
   'c:\\users\\ngothuan\\appdata\\local\\programs\\python\\python38\\VCRUNTIME140_1.dll',
   'BINARY'),
  ('PyQt6\\Qt6\\bin\\Qt6Network.dll',
   'c:\\users\\ngothuan\\appdata\\local\\programs\\python\\python38\\lib\\site-packages\\PyQt6\\Qt6\\bin\\Qt6Network.dll',
   'BINARY'),
  ('PyQt6\\Qt6\\bin\\Qt6Widgets.dll',
   'c:\\users\\ngothuan\\appdata\\local\\programs\\python\\python38\\lib\\site-packages\\PyQt6\\Qt6\\bin\\Qt6Widgets.dll',
   'BINARY'),
  ('libcrypto-1_1.dll',
   'c:\\users\\ngothuan\\appdata\\local\\programs\\python\\python38\\DLLs\\libcrypto-1_1.dll',
   'BINARY'),
  ('libssl-1_1.dll',
   'c:\\users\\ngothuan\\appdata\\local\\programs\\python\\python38\\DLLs\\libssl-1_1.dll',
   'BINARY'),
  ('libffi-7.dll',
   'c:\\users\\ngothuan\\appdata\\local\\programs\\python\\python38\\DLLs\\libffi-7.dll',
   'BINARY'),
  ('numpy\\.libs\\libopenblas64__v0.3.21-gcc_10_3_0.dll',
   'c:\\users\\ngothuan\\appdata\\local\\programs\\python\\python38\\lib\\site-packages\\numpy\\.libs\\libopenblas64__v0.3.21-gcc_10_3_0.dll',
   'BINARY'),
  ('python3.dll',
   'c:\\users\\ngothuan\\appdata\\local\\programs\\python\\python38\\python3.dll',
   'BINARY'),
  ('PyQt6\\Qt6\\bin\\MSVCP140_2.dll',
   'c:\\users\\ngothuan\\appdata\\local\\programs\\python\\python38\\lib\\site-packages\\PyQt6\\Qt6\\bin\\MSVCP140_2.dll',
   'BINARY'),
  ('PyQt6\\Qt6\\bin\\MSVCP140_1.dll',
   'c:\\users\\ngothuan\\appdata\\local\\programs\\python\\python38\\lib\\site-packages\\PyQt6\\Qt6\\bin\\MSVCP140_1.dll',
   'BINARY'),
  ('PyQt6\\Qt6\\bin\\VCRUNTIME140_1.dll',
   'c:\\users\\ngothuan\\appdata\\local\\programs\\python\\python38\\lib\\site-packages\\PyQt6\\Qt6\\bin\\VCRUNTIME140_1.dll',
   'BINARY'),
  ('PyQt6\\Qt6\\bin\\VCRUNTIME140.dll',
   'c:\\users\\ngothuan\\appdata\\local\\programs\\python\\python38\\lib\\site-packages\\PyQt6\\Qt6\\bin\\VCRUNTIME140.dll',
   'BINARY'),
  ('base_library.zip',
   '\\\\Mac\\Home\\Desktop\\unlock-captcha-tw\\build\\main\\base_library.zip',
   'DATA'),
  ('certifi\\cacert.pem',
   'c:\\users\\ngothuan\\appdata\\local\\programs\\python\\python38\\lib\\site-packages\\certifi\\cacert.pem',
   'DATA'),
  ('certifi\\py.typed',
   'c:\\users\\ngothuan\\appdata\\local\\programs\\python\\python38\\lib\\site-packages\\certifi\\py.typed',
   'DATA'),
  ('selenium\\webdriver\\firefox\\webdriver_prefs.json',
   'c:\\users\\ngothuan\\appdata\\local\\programs\\python\\python38\\lib\\site-packages\\selenium\\webdriver\\firefox\\webdriver_prefs.json',
   'DATA'),
  ('selenium\\webdriver\\common\\devtools\\v85\\py.typed',
   'c:\\users\\ngothuan\\appdata\\local\\programs\\python\\python38\\lib\\site-packages\\selenium\\webdriver\\common\\devtools\\v85\\py.typed',
   'DATA'),
  ('selenium\\webdriver\\remote\\getAttribute.js',
   'c:\\users\\ngothuan\\appdata\\local\\programs\\python\\python38\\lib\\site-packages\\selenium\\webdriver\\remote\\getAttribute.js',
   'DATA'),
  ('selenium\\webdriver\\common\\linux\\selenium-manager',
   'c:\\users\\ngothuan\\appdata\\local\\programs\\python\\python38\\lib\\site-packages\\selenium\\webdriver\\common\\linux\\selenium-manager',
   'DATA'),
  ('selenium\\webdriver\\remote\\findElements.js',
   'c:\\users\\ngothuan\\appdata\\local\\programs\\python\\python38\\lib\\site-packages\\selenium\\webdriver\\remote\\findElements.js',
   'DATA'),
  ('selenium\\webdriver\\common\\devtools\\v120\\py.typed',
   'c:\\users\\ngothuan\\appdata\\local\\programs\\python\\python38\\lib\\site-packages\\selenium\\webdriver\\common\\devtools\\v120\\py.typed',
   'DATA'),
  ('selenium\\webdriver\\common\\devtools\\v122\\py.typed',
   'c:\\users\\ngothuan\\appdata\\local\\programs\\python\\python38\\lib\\site-packages\\selenium\\webdriver\\common\\devtools\\v122\\py.typed',
   'DATA'),
  ('selenium\\webdriver\\common\\devtools\\v121\\py.typed',
   'c:\\users\\ngothuan\\appdata\\local\\programs\\python\\python38\\lib\\site-packages\\selenium\\webdriver\\common\\devtools\\v121\\py.typed',
   'DATA'),
  ('selenium\\webdriver\\common\\mutation-listener.js',
   'c:\\users\\ngothuan\\appdata\\local\\programs\\python\\python38\\lib\\site-packages\\selenium\\webdriver\\common\\mutation-listener.js',
   'DATA'),
  ('selenium\\webdriver\\common\\macos\\selenium-manager',
   'c:\\users\\ngothuan\\appdata\\local\\programs\\python\\python38\\lib\\site-packages\\selenium\\webdriver\\common\\macos\\selenium-manager',
   'DATA'),
  ('selenium\\py.typed',
   'c:\\users\\ngothuan\\appdata\\local\\programs\\python\\python38\\lib\\site-packages\\selenium\\py.typed',
   'DATA'),
  ('selenium\\webdriver\\remote\\isDisplayed.js',
   'c:\\users\\ngothuan\\appdata\\local\\programs\\python\\python38\\lib\\site-packages\\selenium\\webdriver\\remote\\isDisplayed.js',
   'DATA'),
  ('PyQt6\\Qt6\\translations\\qt_lv.qm',
   'C:\\users\\ngothuan\\appdata\\local\\programs\\python\\python38\\lib\\site-packages\\PyQt6\\Qt6\\translations\\qt_lv.qm',
   'DATA'),
  ('PyQt6\\Qt6\\translations\\qtbase_bg.qm',
   'C:\\users\\ngothuan\\appdata\\local\\programs\\python\\python38\\lib\\site-packages\\PyQt6\\Qt6\\translations\\qtbase_bg.qm',
   'DATA'),
  ('PyQt6\\Qt6\\translations\\qt_help_es.qm',
   'C:\\users\\ngothuan\\appdata\\local\\programs\\python\\python38\\lib\\site-packages\\PyQt6\\Qt6\\translations\\qt_help_es.qm',
   'DATA'),
  ('PyQt6\\Qt6\\translations\\qt_help_pt_BR.qm',
   'C:\\users\\ngothuan\\appdata\\local\\programs\\python\\python38\\lib\\site-packages\\PyQt6\\Qt6\\translations\\qt_help_pt_BR.qm',
   'DATA'),
  ('PyQt6\\Qt6\\translations\\qtbase_ar.qm',
   'C:\\users\\ngothuan\\appdata\\local\\programs\\python\\python38\\lib\\site-packages\\PyQt6\\Qt6\\translations\\qtbase_ar.qm',
   'DATA'),
  ('PyQt6\\Qt6\\translations\\qtbase_hr.qm',
   'C:\\users\\ngothuan\\appdata\\local\\programs\\python\\python38\\lib\\site-packages\\PyQt6\\Qt6\\translations\\qtbase_hr.qm',
   'DATA'),
  ('PyQt6\\Qt6\\translations\\qtbase_sk.qm',
   'C:\\users\\ngothuan\\appdata\\local\\programs\\python\\python38\\lib\\site-packages\\PyQt6\\Qt6\\translations\\qtbase_sk.qm',
   'DATA'),
  ('PyQt6\\Qt6\\translations\\qtbase_zh_TW.qm',
   'C:\\users\\ngothuan\\appdata\\local\\programs\\python\\python38\\lib\\site-packages\\PyQt6\\Qt6\\translations\\qtbase_zh_TW.qm',
   'DATA'),
  ('PyQt6\\Qt6\\translations\\qt_help_ar.qm',
   'C:\\users\\ngothuan\\appdata\\local\\programs\\python\\python38\\lib\\site-packages\\PyQt6\\Qt6\\translations\\qt_help_ar.qm',
   'DATA'),
  ('PyQt6\\Qt6\\translations\\qtbase_en.qm',
   'C:\\users\\ngothuan\\appdata\\local\\programs\\python\\python38\\lib\\site-packages\\PyQt6\\Qt6\\translations\\qtbase_en.qm',
   'DATA'),
  ('PyQt6\\Qt6\\translations\\qt_gd.qm',
   'C:\\users\\ngothuan\\appdata\\local\\programs\\python\\python38\\lib\\site-packages\\PyQt6\\Qt6\\translations\\qt_gd.qm',
   'DATA'),
  ('PyQt6\\Qt6\\translations\\qt_hu.qm',
   'C:\\users\\ngothuan\\appdata\\local\\programs\\python\\python38\\lib\\site-packages\\PyQt6\\Qt6\\translations\\qt_hu.qm',
   'DATA'),
  ('PyQt6\\Qt6\\translations\\qtbase_pt_BR.qm',
   'C:\\users\\ngothuan\\appdata\\local\\programs\\python\\python38\\lib\\site-packages\\PyQt6\\Qt6\\translations\\qtbase_pt_BR.qm',
   'DATA'),
  ('PyQt6\\Qt6\\translations\\qtbase_cs.qm',
   'C:\\users\\ngothuan\\appdata\\local\\programs\\python\\python38\\lib\\site-packages\\PyQt6\\Qt6\\translations\\qtbase_cs.qm',
   'DATA'),
  ('PyQt6\\Qt6\\translations\\qt_help_pl.qm',
   'C:\\users\\ngothuan\\appdata\\local\\programs\\python\\python38\\lib\\site-packages\\PyQt6\\Qt6\\translations\\qt_help_pl.qm',
   'DATA'),
  ('PyQt6\\Qt6\\translations\\qt_help_ru.qm',
   'C:\\users\\ngothuan\\appdata\\local\\programs\\python\\python38\\lib\\site-packages\\PyQt6\\Qt6\\translations\\qt_help_ru.qm',
   'DATA'),
  ('PyQt6\\Qt6\\translations\\qt_help_bg.qm',
   'C:\\users\\ngothuan\\appdata\\local\\programs\\python\\python38\\lib\\site-packages\\PyQt6\\Qt6\\translations\\qt_help_bg.qm',
   'DATA'),
  ('PyQt6\\Qt6\\translations\\qt_sl.qm',
   'C:\\users\\ngothuan\\appdata\\local\\programs\\python\\python38\\lib\\site-packages\\PyQt6\\Qt6\\translations\\qt_sl.qm',
   'DATA'),
  ('PyQt6\\Qt6\\translations\\qt_help_ja.qm',
   'C:\\users\\ngothuan\\appdata\\local\\programs\\python\\python38\\lib\\site-packages\\PyQt6\\Qt6\\translations\\qt_help_ja.qm',
   'DATA'),
  ('PyQt6\\Qt6\\translations\\qt_lt.qm',
   'C:\\users\\ngothuan\\appdata\\local\\programs\\python\\python38\\lib\\site-packages\\PyQt6\\Qt6\\translations\\qt_lt.qm',
   'DATA'),
  ('PyQt6\\Qt6\\translations\\qtbase_uk.qm',
   'C:\\users\\ngothuan\\appdata\\local\\programs\\python\\python38\\lib\\site-packages\\PyQt6\\Qt6\\translations\\qtbase_uk.qm',
   'DATA'),
  ('PyQt6\\Qt6\\translations\\qtbase_nl.qm',
   'C:\\users\\ngothuan\\appdata\\local\\programs\\python\\python38\\lib\\site-packages\\PyQt6\\Qt6\\translations\\qtbase_nl.qm',
   'DATA'),
  ('PyQt6\\Qt6\\translations\\qt_help_sl.qm',
   'C:\\users\\ngothuan\\appdata\\local\\programs\\python\\python38\\lib\\site-packages\\PyQt6\\Qt6\\translations\\qt_help_sl.qm',
   'DATA'),
  ('PyQt6\\Qt6\\translations\\qt_help_nl.qm',
   'C:\\users\\ngothuan\\appdata\\local\\programs\\python\\python38\\lib\\site-packages\\PyQt6\\Qt6\\translations\\qt_help_nl.qm',
   'DATA'),
  ('PyQt6\\Qt6\\translations\\qt_help_cs.qm',
   'C:\\users\\ngothuan\\appdata\\local\\programs\\python\\python38\\lib\\site-packages\\PyQt6\\Qt6\\translations\\qt_help_cs.qm',
   'DATA'),
  ('PyQt6\\Qt6\\translations\\qt_uk.qm',
   'C:\\users\\ngothuan\\appdata\\local\\programs\\python\\python38\\lib\\site-packages\\PyQt6\\Qt6\\translations\\qt_uk.qm',
   'DATA'),
  ('PyQt6\\Qt6\\translations\\qtbase_it.qm',
   'C:\\users\\ngothuan\\appdata\\local\\programs\\python\\python38\\lib\\site-packages\\PyQt6\\Qt6\\translations\\qtbase_it.qm',
   'DATA'),
  ('PyQt6\\Qt6\\translations\\qt_help_nn.qm',
   'C:\\users\\ngothuan\\appdata\\local\\programs\\python\\python38\\lib\\site-packages\\PyQt6\\Qt6\\translations\\qt_help_nn.qm',
   'DATA'),
  ('PyQt6\\Qt6\\translations\\qt_zh_CN.qm',
   'C:\\users\\ngothuan\\appdata\\local\\programs\\python\\python38\\lib\\site-packages\\PyQt6\\Qt6\\translations\\qt_zh_CN.qm',
   'DATA'),
  ('PyQt6\\Qt6\\translations\\qtbase_pl.qm',
   'C:\\users\\ngothuan\\appdata\\local\\programs\\python\\python38\\lib\\site-packages\\PyQt6\\Qt6\\translations\\qtbase_pl.qm',
   'DATA'),
  ('PyQt6\\Qt6\\translations\\qtbase_es.qm',
   'C:\\users\\ngothuan\\appdata\\local\\programs\\python\\python38\\lib\\site-packages\\PyQt6\\Qt6\\translations\\qtbase_es.qm',
   'DATA'),
  ('PyQt6\\Qt6\\translations\\qtbase_ko.qm',
   'C:\\users\\ngothuan\\appdata\\local\\programs\\python\\python38\\lib\\site-packages\\PyQt6\\Qt6\\translations\\qtbase_ko.qm',
   'DATA'),
  ('PyQt6\\Qt6\\translations\\qt_sv.qm',
   'C:\\users\\ngothuan\\appdata\\local\\programs\\python\\python38\\lib\\site-packages\\PyQt6\\Qt6\\translations\\qt_sv.qm',
   'DATA'),
  ('PyQt6\\Qt6\\translations\\qtbase_he.qm',
   'C:\\users\\ngothuan\\appdata\\local\\programs\\python\\python38\\lib\\site-packages\\PyQt6\\Qt6\\translations\\qtbase_he.qm',
   'DATA'),
  ('PyQt6\\Qt6\\translations\\qtbase_ja.qm',
   'C:\\users\\ngothuan\\appdata\\local\\programs\\python\\python38\\lib\\site-packages\\PyQt6\\Qt6\\translations\\qtbase_ja.qm',
   'DATA'),
  ('PyQt6\\Qt6\\translations\\qt_nn.qm',
   'C:\\users\\ngothuan\\appdata\\local\\programs\\python\\python38\\lib\\site-packages\\PyQt6\\Qt6\\translations\\qt_nn.qm',
   'DATA'),
  ('PyQt6\\Qt6\\translations\\qt_tr.qm',
   'C:\\users\\ngothuan\\appdata\\local\\programs\\python\\python38\\lib\\site-packages\\PyQt6\\Qt6\\translations\\qt_tr.qm',
   'DATA'),
  ('PyQt6\\Qt6\\translations\\qt_help_sk.qm',
   'C:\\users\\ngothuan\\appdata\\local\\programs\\python\\python38\\lib\\site-packages\\PyQt6\\Qt6\\translations\\qt_help_sk.qm',
   'DATA'),
  ('PyQt6\\Qt6\\translations\\qt_help_da.qm',
   'C:\\users\\ngothuan\\appdata\\local\\programs\\python\\python38\\lib\\site-packages\\PyQt6\\Qt6\\translations\\qt_help_da.qm',
   'DATA'),
  ('PyQt6\\Qt6\\translations\\qtbase_de.qm',
   'C:\\users\\ngothuan\\appdata\\local\\programs\\python\\python38\\lib\\site-packages\\PyQt6\\Qt6\\translations\\qtbase_de.qm',
   'DATA'),
  ('PyQt6\\Qt6\\translations\\qt_hr.qm',
   'C:\\users\\ngothuan\\appdata\\local\\programs\\python\\python38\\lib\\site-packages\\PyQt6\\Qt6\\translations\\qt_hr.qm',
   'DATA'),
  ('PyQt6\\Qt6\\translations\\qt_help_ko.qm',
   'C:\\users\\ngothuan\\appdata\\local\\programs\\python\\python38\\lib\\site-packages\\PyQt6\\Qt6\\translations\\qt_help_ko.qm',
   'DATA'),
  ('PyQt6\\Qt6\\translations\\qtbase_lv.qm',
   'C:\\users\\ngothuan\\appdata\\local\\programs\\python\\python38\\lib\\site-packages\\PyQt6\\Qt6\\translations\\qtbase_lv.qm',
   'DATA'),
  ('PyQt6\\Qt6\\translations\\qtbase_ru.qm',
   'C:\\users\\ngothuan\\appdata\\local\\programs\\python\\python38\\lib\\site-packages\\PyQt6\\Qt6\\translations\\qtbase_ru.qm',
   'DATA'),
  ('PyQt6\\Qt6\\translations\\qt_help_en.qm',
   'C:\\users\\ngothuan\\appdata\\local\\programs\\python\\python38\\lib\\site-packages\\PyQt6\\Qt6\\translations\\qt_help_en.qm',
   'DATA'),
  ('PyQt6\\Qt6\\translations\\qt_help_hu.qm',
   'C:\\users\\ngothuan\\appdata\\local\\programs\\python\\python38\\lib\\site-packages\\PyQt6\\Qt6\\translations\\qt_help_hu.qm',
   'DATA'),
  ('PyQt6\\Qt6\\translations\\qt_fa.qm',
   'C:\\users\\ngothuan\\appdata\\local\\programs\\python\\python38\\lib\\site-packages\\PyQt6\\Qt6\\translations\\qt_fa.qm',
   'DATA'),
  ('PyQt6\\Qt6\\translations\\qt_help_uk.qm',
   'C:\\users\\ngothuan\\appdata\\local\\programs\\python\\python38\\lib\\site-packages\\PyQt6\\Qt6\\translations\\qt_help_uk.qm',
   'DATA'),
  ('PyQt6\\Qt6\\translations\\qt_gl.qm',
   'C:\\users\\ngothuan\\appdata\\local\\programs\\python\\python38\\lib\\site-packages\\PyQt6\\Qt6\\translations\\qt_gl.qm',
   'DATA'),
  ('PyQt6\\Qt6\\translations\\qt_bg.qm',
   'C:\\users\\ngothuan\\appdata\\local\\programs\\python\\python38\\lib\\site-packages\\PyQt6\\Qt6\\translations\\qt_bg.qm',
   'DATA'),
  ('PyQt6\\Qt6\\translations\\qt_fi.qm',
   'C:\\users\\ngothuan\\appdata\\local\\programs\\python\\python38\\lib\\site-packages\\PyQt6\\Qt6\\translations\\qt_fi.qm',
   'DATA'),
  ('PyQt6\\Qt6\\translations\\qt_pl.qm',
   'C:\\users\\ngothuan\\appdata\\local\\programs\\python\\python38\\lib\\site-packages\\PyQt6\\Qt6\\translations\\qt_pl.qm',
   'DATA'),
  ('PyQt6\\Qt6\\translations\\qt_help_ca.qm',
   'C:\\users\\ngothuan\\appdata\\local\\programs\\python\\python38\\lib\\site-packages\\PyQt6\\Qt6\\translations\\qt_help_ca.qm',
   'DATA'),
  ('PyQt6\\Qt6\\translations\\qtbase_zh_CN.qm',
   'C:\\users\\ngothuan\\appdata\\local\\programs\\python\\python38\\lib\\site-packages\\PyQt6\\Qt6\\translations\\qtbase_zh_CN.qm',
   'DATA'),
  ('PyQt6\\Qt6\\translations\\qtbase_tr.qm',
   'C:\\users\\ngothuan\\appdata\\local\\programs\\python\\python38\\lib\\site-packages\\PyQt6\\Qt6\\translations\\qtbase_tr.qm',
   'DATA'),
  ('PyQt6\\Qt6\\translations\\qt_help_gl.qm',
   'C:\\users\\ngothuan\\appdata\\local\\programs\\python\\python38\\lib\\site-packages\\PyQt6\\Qt6\\translations\\qt_help_gl.qm',
   'DATA'),
  ('PyQt6\\Qt6\\translations\\qtbase_gd.qm',
   'C:\\users\\ngothuan\\appdata\\local\\programs\\python\\python38\\lib\\site-packages\\PyQt6\\Qt6\\translations\\qtbase_gd.qm',
   'DATA'),
  ('PyQt6\\Qt6\\translations\\qt_ca.qm',
   'C:\\users\\ngothuan\\appdata\\local\\programs\\python\\python38\\lib\\site-packages\\PyQt6\\Qt6\\translations\\qt_ca.qm',
   'DATA'),
  ('PyQt6\\Qt6\\translations\\qtbase_ca.qm',
   'C:\\users\\ngothuan\\appdata\\local\\programs\\python\\python38\\lib\\site-packages\\PyQt6\\Qt6\\translations\\qtbase_ca.qm',
   'DATA'),
  ('PyQt6\\Qt6\\translations\\qt_ja.qm',
   'C:\\users\\ngothuan\\appdata\\local\\programs\\python\\python38\\lib\\site-packages\\PyQt6\\Qt6\\translations\\qt_ja.qm',
   'DATA'),
  ('PyQt6\\Qt6\\translations\\qt_help_it.qm',
   'C:\\users\\ngothuan\\appdata\\local\\programs\\python\\python38\\lib\\site-packages\\PyQt6\\Qt6\\translations\\qt_help_it.qm',
   'DATA'),
  ('PyQt6\\Qt6\\translations\\qtbase_nn.qm',
   'C:\\users\\ngothuan\\appdata\\local\\programs\\python\\python38\\lib\\site-packages\\PyQt6\\Qt6\\translations\\qtbase_nn.qm',
   'DATA'),
  ('PyQt6\\Qt6\\translations\\qt_ko.qm',
   'C:\\users\\ngothuan\\appdata\\local\\programs\\python\\python38\\lib\\site-packages\\PyQt6\\Qt6\\translations\\qt_ko.qm',
   'DATA'),
  ('PyQt6\\Qt6\\translations\\qt_ar.qm',
   'C:\\users\\ngothuan\\appdata\\local\\programs\\python\\python38\\lib\\site-packages\\PyQt6\\Qt6\\translations\\qt_ar.qm',
   'DATA'),
  ('PyQt6\\Qt6\\translations\\qtbase_fr.qm',
   'C:\\users\\ngothuan\\appdata\\local\\programs\\python\\python38\\lib\\site-packages\\PyQt6\\Qt6\\translations\\qtbase_fr.qm',
   'DATA'),
  ('PyQt6\\Qt6\\translations\\qt_pt_PT.qm',
   'C:\\users\\ngothuan\\appdata\\local\\programs\\python\\python38\\lib\\site-packages\\PyQt6\\Qt6\\translations\\qt_pt_PT.qm',
   'DATA'),
  ('PyQt6\\Qt6\\translations\\qt_cs.qm',
   'C:\\users\\ngothuan\\appdata\\local\\programs\\python\\python38\\lib\\site-packages\\PyQt6\\Qt6\\translations\\qt_cs.qm',
   'DATA'),
  ('PyQt6\\Qt6\\translations\\qt_help_fr.qm',
   'C:\\users\\ngothuan\\appdata\\local\\programs\\python\\python38\\lib\\site-packages\\PyQt6\\Qt6\\translations\\qt_help_fr.qm',
   'DATA'),
  ('PyQt6\\Qt6\\translations\\qt_da.qm',
   'C:\\users\\ngothuan\\appdata\\local\\programs\\python\\python38\\lib\\site-packages\\PyQt6\\Qt6\\translations\\qt_da.qm',
   'DATA'),
  ('PyQt6\\Qt6\\translations\\qtbase_fa.qm',
   'C:\\users\\ngothuan\\appdata\\local\\programs\\python\\python38\\lib\\site-packages\\PyQt6\\Qt6\\translations\\qtbase_fa.qm',
   'DATA'),
  ('PyQt6\\Qt6\\translations\\qtbase_da.qm',
   'C:\\users\\ngothuan\\appdata\\local\\programs\\python\\python38\\lib\\site-packages\\PyQt6\\Qt6\\translations\\qtbase_da.qm',
   'DATA'),
  ('PyQt6\\Qt6\\translations\\qt_en.qm',
   'C:\\users\\ngothuan\\appdata\\local\\programs\\python\\python38\\lib\\site-packages\\PyQt6\\Qt6\\translations\\qt_en.qm',
   'DATA'),
  ('PyQt6\\Qt6\\translations\\qt_es.qm',
   'C:\\users\\ngothuan\\appdata\\local\\programs\\python\\python38\\lib\\site-packages\\PyQt6\\Qt6\\translations\\qt_es.qm',
   'DATA'),
  ('PyQt6\\Qt6\\translations\\qt_help_zh_CN.qm',
   'C:\\users\\ngothuan\\appdata\\local\\programs\\python\\python38\\lib\\site-packages\\PyQt6\\Qt6\\translations\\qt_help_zh_CN.qm',
   'DATA'),
  ('PyQt6\\Qt6\\translations\\qt_it.qm',
   'C:\\users\\ngothuan\\appdata\\local\\programs\\python\\python38\\lib\\site-packages\\PyQt6\\Qt6\\translations\\qt_it.qm',
   'DATA'),
  ('PyQt6\\Qt6\\translations\\qt_help_zh_TW.qm',
   'C:\\users\\ngothuan\\appdata\\local\\programs\\python\\python38\\lib\\site-packages\\PyQt6\\Qt6\\translations\\qt_help_zh_TW.qm',
   'DATA'),
  ('PyQt6\\Qt6\\translations\\qt_help_de.qm',
   'C:\\users\\ngothuan\\appdata\\local\\programs\\python\\python38\\lib\\site-packages\\PyQt6\\Qt6\\translations\\qt_help_de.qm',
   'DATA'),
  ('PyQt6\\Qt6\\translations\\qt_help_tr.qm',
   'C:\\users\\ngothuan\\appdata\\local\\programs\\python\\python38\\lib\\site-packages\\PyQt6\\Qt6\\translations\\qt_help_tr.qm',
   'DATA'),
  ('PyQt6\\Qt6\\translations\\qtbase_hu.qm',
   'C:\\users\\ngothuan\\appdata\\local\\programs\\python\\python38\\lib\\site-packages\\PyQt6\\Qt6\\translations\\qtbase_hu.qm',
   'DATA'),
  ('PyQt6\\Qt6\\translations\\qt_nl.qm',
   'C:\\users\\ngothuan\\appdata\\local\\programs\\python\\python38\\lib\\site-packages\\PyQt6\\Qt6\\translations\\qt_nl.qm',
   'DATA'),
  ('PyQt6\\Qt6\\translations\\qt_fr.qm',
   'C:\\users\\ngothuan\\appdata\\local\\programs\\python\\python38\\lib\\site-packages\\PyQt6\\Qt6\\translations\\qt_fr.qm',
   'DATA'),
  ('PyQt6\\Qt6\\translations\\qt_ru.qm',
   'C:\\users\\ngothuan\\appdata\\local\\programs\\python\\python38\\lib\\site-packages\\PyQt6\\Qt6\\translations\\qt_ru.qm',
   'DATA'),
  ('PyQt6\\Qt6\\translations\\qt_help_hr.qm',
   'C:\\users\\ngothuan\\appdata\\local\\programs\\python\\python38\\lib\\site-packages\\PyQt6\\Qt6\\translations\\qt_help_hr.qm',
   'DATA'),
  ('PyQt6\\Qt6\\translations\\qtbase_fi.qm',
   'C:\\users\\ngothuan\\appdata\\local\\programs\\python\\python38\\lib\\site-packages\\PyQt6\\Qt6\\translations\\qtbase_fi.qm',
   'DATA'),
  ('PyQt6\\Qt6\\translations\\qt_he.qm',
   'C:\\users\\ngothuan\\appdata\\local\\programs\\python\\python38\\lib\\site-packages\\PyQt6\\Qt6\\translations\\qt_he.qm',
   'DATA'),
  ('PyQt6\\Qt6\\translations\\qt_zh_TW.qm',
   'C:\\users\\ngothuan\\appdata\\local\\programs\\python\\python38\\lib\\site-packages\\PyQt6\\Qt6\\translations\\qt_zh_TW.qm',
   'DATA'),
  ('PyQt6\\Qt6\\translations\\qt_de.qm',
   'C:\\users\\ngothuan\\appdata\\local\\programs\\python\\python38\\lib\\site-packages\\PyQt6\\Qt6\\translations\\qt_de.qm',
   'DATA'),
  ('PyQt6\\Qt6\\translations\\qt_sk.qm',
   'C:\\users\\ngothuan\\appdata\\local\\programs\\python\\python38\\lib\\site-packages\\PyQt6\\Qt6\\translations\\qt_sk.qm',
   'DATA'),
  ('PyQt6\\Qt6\\translations\\qt_pt_BR.qm',
   'C:\\users\\ngothuan\\appdata\\local\\programs\\python\\python38\\lib\\site-packages\\PyQt6\\Qt6\\translations\\qt_pt_BR.qm',
   'DATA')],
 [],
 False,
 False,
 1708962127,
 [('run.exe',
   'c:\\users\\ngothuan\\appdata\\local\\programs\\python\\python38\\lib\\site-packages\\PyInstaller\\bootloader\\Windows-64bit-intel\\run.exe',
   'EXECUTABLE')],
 'c:\\users\\ngothuan\\appdata\\local\\programs\\python\\python38\\python38.dll')
