('\\\\Mac\\Home\\Desktop\\unlock-captcha-tw\\build\\main\\PYZ-00.pyz',
 [('GPMLoginAPI',
   '\\\\Mac\\Home\\Desktop\\unlock-captcha-tw\\GPMLoginAPI.py',
   'PYMODULE'),
  ('PyQt6',
   'c:\\users\\ngothuan\\appdata\\local\\programs\\python\\python38\\lib\\site-packages\\PyQt6\\__init__.py',
   'PYMODULE'),
  ('__future__',
   'c:\\users\\ngothuan\\appdata\\local\\programs\\python\\python38\\lib\\__future__.py',
   'PYMODULE'),
  ('_compat_pickle',
   'c:\\users\\ngothuan\\appdata\\local\\programs\\python\\python38\\lib\\_compat_pickle.py',
   'PYMODULE'),
  ('_compression',
   'c:\\users\\ngothuan\\appdata\\local\\programs\\python\\python38\\lib\\_compression.py',
   'PYMODULE'),
  ('_dummy_thread',
   'c:\\users\\ngothuan\\appdata\\local\\programs\\python\\python38\\lib\\_dummy_thread.py',
   'PYMODULE'),
  ('_py_abc',
   'c:\\users\\ngothuan\\appdata\\local\\programs\\python\\python38\\lib\\_py_abc.py',
   'PYMODULE'),
  ('_pydecimal',
   'c:\\users\\ngothuan\\appdata\\local\\programs\\python\\python38\\lib\\_pydecimal.py',
   'PYMODULE'),
  ('_pyi_rth_utils',
   'c:\\users\\ngothuan\\appdata\\local\\programs\\python\\python38\\lib\\site-packages\\PyInstaller\\fake-modules\\_pyi_rth_utils\\__init__.py',
   'PYMODULE'),
  ('_strptime',
   'c:\\users\\ngothuan\\appdata\\local\\programs\\python\\python38\\lib\\_strptime.py',
   'PYMODULE'),
  ('_threading_local',
   'c:\\users\\ngothuan\\appdata\\local\\programs\\python\\python38\\lib\\_threading_local.py',
   'PYMODULE'),
  ('argparse',
   'c:\\users\\ngothuan\\appdata\\local\\programs\\python\\python38\\lib\\argparse.py',
   'PYMODULE'),
  ('ast',
   'c:\\users\\ngothuan\\appdata\\local\\programs\\python\\python38\\lib\\ast.py',
   'PYMODULE'),
  ('asyncio',
   'c:\\users\\ngothuan\\appdata\\local\\programs\\python\\python38\\lib\\asyncio\\__init__.py',
   'PYMODULE'),
  ('asyncio.base_events',
   'c:\\users\\ngothuan\\appdata\\local\\programs\\python\\python38\\lib\\asyncio\\base_events.py',
   'PYMODULE'),
  ('asyncio.base_futures',
   'c:\\users\\ngothuan\\appdata\\local\\programs\\python\\python38\\lib\\asyncio\\base_futures.py',
   'PYMODULE'),
  ('asyncio.base_subprocess',
   'c:\\users\\ngothuan\\appdata\\local\\programs\\python\\python38\\lib\\asyncio\\base_subprocess.py',
   'PYMODULE'),
  ('asyncio.base_tasks',
   'c:\\users\\ngothuan\\appdata\\local\\programs\\python\\python38\\lib\\asyncio\\base_tasks.py',
   'PYMODULE'),
  ('asyncio.constants',
   'c:\\users\\ngothuan\\appdata\\local\\programs\\python\\python38\\lib\\asyncio\\constants.py',
   'PYMODULE'),
  ('asyncio.coroutines',
   'c:\\users\\ngothuan\\appdata\\local\\programs\\python\\python38\\lib\\asyncio\\coroutines.py',
   'PYMODULE'),
  ('asyncio.events',
   'c:\\users\\ngothuan\\appdata\\local\\programs\\python\\python38\\lib\\asyncio\\events.py',
   'PYMODULE'),
  ('asyncio.exceptions',
   'c:\\users\\ngothuan\\appdata\\local\\programs\\python\\python38\\lib\\asyncio\\exceptions.py',
   'PYMODULE'),
  ('asyncio.format_helpers',
   'c:\\users\\ngothuan\\appdata\\local\\programs\\python\\python38\\lib\\asyncio\\format_helpers.py',
   'PYMODULE'),
  ('asyncio.futures',
   'c:\\users\\ngothuan\\appdata\\local\\programs\\python\\python38\\lib\\asyncio\\futures.py',
   'PYMODULE'),
  ('asyncio.locks',
   'c:\\users\\ngothuan\\appdata\\local\\programs\\python\\python38\\lib\\asyncio\\locks.py',
   'PYMODULE'),
  ('asyncio.log',
   'c:\\users\\ngothuan\\appdata\\local\\programs\\python\\python38\\lib\\asyncio\\log.py',
   'PYMODULE'),
  ('asyncio.proactor_events',
   'c:\\users\\ngothuan\\appdata\\local\\programs\\python\\python38\\lib\\asyncio\\proactor_events.py',
   'PYMODULE'),
  ('asyncio.protocols',
   'c:\\users\\ngothuan\\appdata\\local\\programs\\python\\python38\\lib\\asyncio\\protocols.py',
   'PYMODULE'),
  ('asyncio.queues',
   'c:\\users\\ngothuan\\appdata\\local\\programs\\python\\python38\\lib\\asyncio\\queues.py',
   'PYMODULE'),
  ('asyncio.runners',
   'c:\\users\\ngothuan\\appdata\\local\\programs\\python\\python38\\lib\\asyncio\\runners.py',
   'PYMODULE'),
  ('asyncio.selector_events',
   'c:\\users\\ngothuan\\appdata\\local\\programs\\python\\python38\\lib\\asyncio\\selector_events.py',
   'PYMODULE'),
  ('asyncio.sslproto',
   'c:\\users\\ngothuan\\appdata\\local\\programs\\python\\python38\\lib\\asyncio\\sslproto.py',
   'PYMODULE'),
  ('asyncio.staggered',
   'c:\\users\\ngothuan\\appdata\\local\\programs\\python\\python38\\lib\\asyncio\\staggered.py',
   'PYMODULE'),
  ('asyncio.streams',
   'c:\\users\\ngothuan\\appdata\\local\\programs\\python\\python38\\lib\\asyncio\\streams.py',
   'PYMODULE'),
  ('asyncio.subprocess',
   'c:\\users\\ngothuan\\appdata\\local\\programs\\python\\python38\\lib\\asyncio\\subprocess.py',
   'PYMODULE'),
  ('asyncio.tasks',
   'c:\\users\\ngothuan\\appdata\\local\\programs\\python\\python38\\lib\\asyncio\\tasks.py',
   'PYMODULE'),
  ('asyncio.transports',
   'c:\\users\\ngothuan\\appdata\\local\\programs\\python\\python38\\lib\\asyncio\\transports.py',
   'PYMODULE'),
  ('asyncio.trsock',
   'c:\\users\\ngothuan\\appdata\\local\\programs\\python\\python38\\lib\\asyncio\\trsock.py',
   'PYMODULE'),
  ('asyncio.unix_events',
   'c:\\users\\ngothuan\\appdata\\local\\programs\\python\\python38\\lib\\asyncio\\unix_events.py',
   'PYMODULE'),
  ('asyncio.windows_events',
   'c:\\users\\ngothuan\\appdata\\local\\programs\\python\\python38\\lib\\asyncio\\windows_events.py',
   'PYMODULE'),
  ('asyncio.windows_utils',
   'c:\\users\\ngothuan\\appdata\\local\\programs\\python\\python38\\lib\\asyncio\\windows_utils.py',
   'PYMODULE'),
  ('base64',
   'c:\\users\\ngothuan\\appdata\\local\\programs\\python\\python38\\lib\\base64.py',
   'PYMODULE'),
  ('bdb',
   'c:\\users\\ngothuan\\appdata\\local\\programs\\python\\python38\\lib\\bdb.py',
   'PYMODULE'),
  ('bisect',
   'c:\\users\\ngothuan\\appdata\\local\\programs\\python\\python38\\lib\\bisect.py',
   'PYMODULE'),
  ('bz2',
   'c:\\users\\ngothuan\\appdata\\local\\programs\\python\\python38\\lib\\bz2.py',
   'PYMODULE'),
  ('calendar',
   'c:\\users\\ngothuan\\appdata\\local\\programs\\python\\python38\\lib\\calendar.py',
   'PYMODULE'),
  ('certifi',
   'c:\\users\\ngothuan\\appdata\\local\\programs\\python\\python38\\lib\\site-packages\\certifi\\__init__.py',
   'PYMODULE'),
  ('certifi.core',
   'c:\\users\\ngothuan\\appdata\\local\\programs\\python\\python38\\lib\\site-packages\\certifi\\core.py',
   'PYMODULE'),
  ('charset_normalizer',
   'c:\\users\\ngothuan\\appdata\\local\\programs\\python\\python38\\lib\\site-packages\\charset_normalizer\\__init__.py',
   'PYMODULE'),
  ('charset_normalizer.api',
   'c:\\users\\ngothuan\\appdata\\local\\programs\\python\\python38\\lib\\site-packages\\charset_normalizer\\api.py',
   'PYMODULE'),
  ('charset_normalizer.cd',
   'c:\\users\\ngothuan\\appdata\\local\\programs\\python\\python38\\lib\\site-packages\\charset_normalizer\\cd.py',
   'PYMODULE'),
  ('charset_normalizer.constant',
   'c:\\users\\ngothuan\\appdata\\local\\programs\\python\\python38\\lib\\site-packages\\charset_normalizer\\constant.py',
   'PYMODULE'),
  ('charset_normalizer.legacy',
   'c:\\users\\ngothuan\\appdata\\local\\programs\\python\\python38\\lib\\site-packages\\charset_normalizer\\legacy.py',
   'PYMODULE'),
  ('charset_normalizer.models',
   'c:\\users\\ngothuan\\appdata\\local\\programs\\python\\python38\\lib\\site-packages\\charset_normalizer\\models.py',
   'PYMODULE'),
  ('charset_normalizer.utils',
   'c:\\users\\ngothuan\\appdata\\local\\programs\\python\\python38\\lib\\site-packages\\charset_normalizer\\utils.py',
   'PYMODULE'),
  ('charset_normalizer.version',
   'c:\\users\\ngothuan\\appdata\\local\\programs\\python\\python38\\lib\\site-packages\\charset_normalizer\\version.py',
   'PYMODULE'),
  ('chorme',
   '\\\\Mac\\Home\\Desktop\\unlock-captcha-tw\\chorme.py',
   'PYMODULE'),
  ('cmd',
   'c:\\users\\ngothuan\\appdata\\local\\programs\\python\\python38\\lib\\cmd.py',
   'PYMODULE'),
  ('code',
   'c:\\users\\ngothuan\\appdata\\local\\programs\\python\\python38\\lib\\code.py',
   'PYMODULE'),
  ('codeop',
   'c:\\users\\ngothuan\\appdata\\local\\programs\\python\\python38\\lib\\codeop.py',
   'PYMODULE'),
  ('concurrent',
   'c:\\users\\ngothuan\\appdata\\local\\programs\\python\\python38\\lib\\concurrent\\__init__.py',
   'PYMODULE'),
  ('concurrent.futures',
   'c:\\users\\ngothuan\\appdata\\local\\programs\\python\\python38\\lib\\concurrent\\futures\\__init__.py',
   'PYMODULE'),
  ('concurrent.futures._base',
   'c:\\users\\ngothuan\\appdata\\local\\programs\\python\\python38\\lib\\concurrent\\futures\\_base.py',
   'PYMODULE'),
  ('concurrent.futures.process',
   'c:\\users\\ngothuan\\appdata\\local\\programs\\python\\python38\\lib\\concurrent\\futures\\process.py',
   'PYMODULE'),
  ('concurrent.futures.thread',
   'c:\\users\\ngothuan\\appdata\\local\\programs\\python\\python38\\lib\\concurrent\\futures\\thread.py',
   'PYMODULE'),
  ('configparser',
   'c:\\users\\ngothuan\\appdata\\local\\programs\\python\\python38\\lib\\configparser.py',
   'PYMODULE'),
  ('contextlib',
   'c:\\users\\ngothuan\\appdata\\local\\programs\\python\\python38\\lib\\contextlib.py',
   'PYMODULE'),
  ('contextvars',
   'c:\\users\\ngothuan\\appdata\\local\\programs\\python\\python38\\lib\\contextvars.py',
   'PYMODULE'),
  ('copy',
   'c:\\users\\ngothuan\\appdata\\local\\programs\\python\\python38\\lib\\copy.py',
   'PYMODULE'),
  ('csv',
   'c:\\users\\ngothuan\\appdata\\local\\programs\\python\\python38\\lib\\csv.py',
   'PYMODULE'),
  ('ctypes',
   'c:\\users\\ngothuan\\appdata\\local\\programs\\python\\python38\\lib\\ctypes\\__init__.py',
   'PYMODULE'),
  ('ctypes._aix',
   'c:\\users\\ngothuan\\appdata\\local\\programs\\python\\python38\\lib\\ctypes\\_aix.py',
   'PYMODULE'),
  ('ctypes._endian',
   'c:\\users\\ngothuan\\appdata\\local\\programs\\python\\python38\\lib\\ctypes\\_endian.py',
   'PYMODULE'),
  ('ctypes.macholib',
   'c:\\users\\ngothuan\\appdata\\local\\programs\\python\\python38\\lib\\ctypes\\macholib\\__init__.py',
   'PYMODULE'),
  ('ctypes.macholib.dyld',
   'c:\\users\\ngothuan\\appdata\\local\\programs\\python\\python38\\lib\\ctypes\\macholib\\dyld.py',
   'PYMODULE'),
  ('ctypes.macholib.dylib',
   'c:\\users\\ngothuan\\appdata\\local\\programs\\python\\python38\\lib\\ctypes\\macholib\\dylib.py',
   'PYMODULE'),
  ('ctypes.macholib.framework',
   'c:\\users\\ngothuan\\appdata\\local\\programs\\python\\python38\\lib\\ctypes\\macholib\\framework.py',
   'PYMODULE'),
  ('ctypes.util',
   'c:\\users\\ngothuan\\appdata\\local\\programs\\python\\python38\\lib\\ctypes\\util.py',
   'PYMODULE'),
  ('dataclasses',
   'c:\\users\\ngothuan\\appdata\\local\\programs\\python\\python38\\lib\\dataclasses.py',
   'PYMODULE'),
  ('datetime',
   'c:\\users\\ngothuan\\appdata\\local\\programs\\python\\python38\\lib\\datetime.py',
   'PYMODULE'),
  ('decimal',
   'c:\\users\\ngothuan\\appdata\\local\\programs\\python\\python38\\lib\\decimal.py',
   'PYMODULE'),
  ('difflib',
   'c:\\users\\ngothuan\\appdata\\local\\programs\\python\\python38\\lib\\difflib.py',
   'PYMODULE'),
  ('dis',
   'c:\\users\\ngothuan\\appdata\\local\\programs\\python\\python38\\lib\\dis.py',
   'PYMODULE'),
  ('doctest',
   'c:\\users\\ngothuan\\appdata\\local\\programs\\python\\python38\\lib\\doctest.py',
   'PYMODULE'),
  ('dummy_threading',
   'c:\\users\\ngothuan\\appdata\\local\\programs\\python\\python38\\lib\\dummy_threading.py',
   'PYMODULE'),
  ('email',
   'c:\\users\\ngothuan\\appdata\\local\\programs\\python\\python38\\lib\\email\\__init__.py',
   'PYMODULE'),
  ('email._encoded_words',
   'c:\\users\\ngothuan\\appdata\\local\\programs\\python\\python38\\lib\\email\\_encoded_words.py',
   'PYMODULE'),
  ('email._header_value_parser',
   'c:\\users\\ngothuan\\appdata\\local\\programs\\python\\python38\\lib\\email\\_header_value_parser.py',
   'PYMODULE'),
  ('email._parseaddr',
   'c:\\users\\ngothuan\\appdata\\local\\programs\\python\\python38\\lib\\email\\_parseaddr.py',
   'PYMODULE'),
  ('email._policybase',
   'c:\\users\\ngothuan\\appdata\\local\\programs\\python\\python38\\lib\\email\\_policybase.py',
   'PYMODULE'),
  ('email.base64mime',
   'c:\\users\\ngothuan\\appdata\\local\\programs\\python\\python38\\lib\\email\\base64mime.py',
   'PYMODULE'),
  ('email.charset',
   'c:\\users\\ngothuan\\appdata\\local\\programs\\python\\python38\\lib\\email\\charset.py',
   'PYMODULE'),
  ('email.contentmanager',
   'c:\\users\\ngothuan\\appdata\\local\\programs\\python\\python38\\lib\\email\\contentmanager.py',
   'PYMODULE'),
  ('email.encoders',
   'c:\\users\\ngothuan\\appdata\\local\\programs\\python\\python38\\lib\\email\\encoders.py',
   'PYMODULE'),
  ('email.errors',
   'c:\\users\\ngothuan\\appdata\\local\\programs\\python\\python38\\lib\\email\\errors.py',
   'PYMODULE'),
  ('email.feedparser',
   'c:\\users\\ngothuan\\appdata\\local\\programs\\python\\python38\\lib\\email\\feedparser.py',
   'PYMODULE'),
  ('email.generator',
   'c:\\users\\ngothuan\\appdata\\local\\programs\\python\\python38\\lib\\email\\generator.py',
   'PYMODULE'),
  ('email.header',
   'c:\\users\\ngothuan\\appdata\\local\\programs\\python\\python38\\lib\\email\\header.py',
   'PYMODULE'),
  ('email.headerregistry',
   'c:\\users\\ngothuan\\appdata\\local\\programs\\python\\python38\\lib\\email\\headerregistry.py',
   'PYMODULE'),
  ('email.iterators',
   'c:\\users\\ngothuan\\appdata\\local\\programs\\python\\python38\\lib\\email\\iterators.py',
   'PYMODULE'),
  ('email.message',
   'c:\\users\\ngothuan\\appdata\\local\\programs\\python\\python38\\lib\\email\\message.py',
   'PYMODULE'),
  ('email.parser',
   'c:\\users\\ngothuan\\appdata\\local\\programs\\python\\python38\\lib\\email\\parser.py',
   'PYMODULE'),
  ('email.policy',
   'c:\\users\\ngothuan\\appdata\\local\\programs\\python\\python38\\lib\\email\\policy.py',
   'PYMODULE'),
  ('email.quoprimime',
   'c:\\users\\ngothuan\\appdata\\local\\programs\\python\\python38\\lib\\email\\quoprimime.py',
   'PYMODULE'),
  ('email.utils',
   'c:\\users\\ngothuan\\appdata\\local\\programs\\python\\python38\\lib\\email\\utils.py',
   'PYMODULE'),
  ('fnmatch',
   'c:\\users\\ngothuan\\appdata\\local\\programs\\python\\python38\\lib\\fnmatch.py',
   'PYMODULE'),
  ('ftplib',
   'c:\\users\\ngothuan\\appdata\\local\\programs\\python\\python38\\lib\\ftplib.py',
   'PYMODULE'),
  ('getopt',
   'c:\\users\\ngothuan\\appdata\\local\\programs\\python\\python38\\lib\\getopt.py',
   'PYMODULE'),
  ('getpass',
   'c:\\users\\ngothuan\\appdata\\local\\programs\\python\\python38\\lib\\getpass.py',
   'PYMODULE'),
  ('gettext',
   'c:\\users\\ngothuan\\appdata\\local\\programs\\python\\python38\\lib\\gettext.py',
   'PYMODULE'),
  ('glob',
   'c:\\users\\ngothuan\\appdata\\local\\programs\\python\\python38\\lib\\glob.py',
   'PYMODULE'),
  ('gzip',
   'c:\\users\\ngothuan\\appdata\\local\\programs\\python\\python38\\lib\\gzip.py',
   'PYMODULE'),
  ('hashlib',
   'c:\\users\\ngothuan\\appdata\\local\\programs\\python\\python38\\lib\\hashlib.py',
   'PYMODULE'),
  ('hmac',
   'c:\\users\\ngothuan\\appdata\\local\\programs\\python\\python38\\lib\\hmac.py',
   'PYMODULE'),
  ('html',
   'c:\\users\\ngothuan\\appdata\\local\\programs\\python\\python38\\lib\\html\\__init__.py',
   'PYMODULE'),
  ('html.entities',
   'c:\\users\\ngothuan\\appdata\\local\\programs\\python\\python38\\lib\\html\\entities.py',
   'PYMODULE'),
  ('http',
   'c:\\users\\ngothuan\\appdata\\local\\programs\\python\\python38\\lib\\http\\__init__.py',
   'PYMODULE'),
  ('http.client',
   'c:\\users\\ngothuan\\appdata\\local\\programs\\python\\python38\\lib\\http\\client.py',
   'PYMODULE'),
  ('http.cookiejar',
   'c:\\users\\ngothuan\\appdata\\local\\programs\\python\\python38\\lib\\http\\cookiejar.py',
   'PYMODULE'),
  ('http.cookies',
   'c:\\users\\ngothuan\\appdata\\local\\programs\\python\\python38\\lib\\http\\cookies.py',
   'PYMODULE'),
  ('http.server',
   'c:\\users\\ngothuan\\appdata\\local\\programs\\python\\python38\\lib\\http\\server.py',
   'PYMODULE'),
  ('idna',
   'c:\\users\\ngothuan\\appdata\\local\\programs\\python\\python38\\lib\\site-packages\\idna\\__init__.py',
   'PYMODULE'),
  ('idna.core',
   'c:\\users\\ngothuan\\appdata\\local\\programs\\python\\python38\\lib\\site-packages\\idna\\core.py',
   'PYMODULE'),
  ('idna.idnadata',
   'c:\\users\\ngothuan\\appdata\\local\\programs\\python\\python38\\lib\\site-packages\\idna\\idnadata.py',
   'PYMODULE'),
  ('idna.intranges',
   'c:\\users\\ngothuan\\appdata\\local\\programs\\python\\python38\\lib\\site-packages\\idna\\intranges.py',
   'PYMODULE'),
  ('idna.package_data',
   'c:\\users\\ngothuan\\appdata\\local\\programs\\python\\python38\\lib\\site-packages\\idna\\package_data.py',
   'PYMODULE'),
  ('idna.uts46data',
   'c:\\users\\ngothuan\\appdata\\local\\programs\\python\\python38\\lib\\site-packages\\idna\\uts46data.py',
   'PYMODULE'),
  ('importlib',
   'c:\\users\\ngothuan\\appdata\\local\\programs\\python\\python38\\lib\\importlib\\__init__.py',
   'PYMODULE'),
  ('importlib._bootstrap',
   'c:\\users\\ngothuan\\appdata\\local\\programs\\python\\python38\\lib\\importlib\\_bootstrap.py',
   'PYMODULE'),
  ('importlib._bootstrap_external',
   'c:\\users\\ngothuan\\appdata\\local\\programs\\python\\python38\\lib\\importlib\\_bootstrap_external.py',
   'PYMODULE'),
  ('importlib.abc',
   'c:\\users\\ngothuan\\appdata\\local\\programs\\python\\python38\\lib\\importlib\\abc.py',
   'PYMODULE'),
  ('importlib.machinery',
   'c:\\users\\ngothuan\\appdata\\local\\programs\\python\\python38\\lib\\importlib\\machinery.py',
   'PYMODULE'),
  ('importlib.metadata',
   'c:\\users\\ngothuan\\appdata\\local\\programs\\python\\python38\\lib\\importlib\\metadata.py',
   'PYMODULE'),
  ('importlib.resources',
   'c:\\users\\ngothuan\\appdata\\local\\programs\\python\\python38\\lib\\importlib\\resources.py',
   'PYMODULE'),
  ('importlib.util',
   'c:\\users\\ngothuan\\appdata\\local\\programs\\python\\python38\\lib\\importlib\\util.py',
   'PYMODULE'),
  ('inspect',
   'c:\\users\\ngothuan\\appdata\\local\\programs\\python\\python38\\lib\\inspect.py',
   'PYMODULE'),
  ('ipaddress',
   'c:\\users\\ngothuan\\appdata\\local\\programs\\python\\python38\\lib\\ipaddress.py',
   'PYMODULE'),
  ('json',
   'c:\\users\\ngothuan\\appdata\\local\\programs\\python\\python38\\lib\\json\\__init__.py',
   'PYMODULE'),
  ('json.decoder',
   'c:\\users\\ngothuan\\appdata\\local\\programs\\python\\python38\\lib\\json\\decoder.py',
   'PYMODULE'),
  ('json.encoder',
   'c:\\users\\ngothuan\\appdata\\local\\programs\\python\\python38\\lib\\json\\encoder.py',
   'PYMODULE'),
  ('json.scanner',
   'c:\\users\\ngothuan\\appdata\\local\\programs\\python\\python38\\lib\\json\\scanner.py',
   'PYMODULE'),
  ('logging',
   'c:\\users\\ngothuan\\appdata\\local\\programs\\python\\python38\\lib\\logging\\__init__.py',
   'PYMODULE'),
  ('lzma',
   'c:\\users\\ngothuan\\appdata\\local\\programs\\python\\python38\\lib\\lzma.py',
   'PYMODULE'),
  ('mimetypes',
   'c:\\users\\ngothuan\\appdata\\local\\programs\\python\\python38\\lib\\mimetypes.py',
   'PYMODULE'),
  ('multiprocessing',
   'c:\\users\\ngothuan\\appdata\\local\\programs\\python\\python38\\lib\\multiprocessing\\__init__.py',
   'PYMODULE'),
  ('multiprocessing.connection',
   'c:\\users\\ngothuan\\appdata\\local\\programs\\python\\python38\\lib\\multiprocessing\\connection.py',
   'PYMODULE'),
  ('multiprocessing.context',
   'c:\\users\\ngothuan\\appdata\\local\\programs\\python\\python38\\lib\\multiprocessing\\context.py',
   'PYMODULE'),
  ('multiprocessing.dummy',
   'c:\\users\\ngothuan\\appdata\\local\\programs\\python\\python38\\lib\\multiprocessing\\dummy\\__init__.py',
   'PYMODULE'),
  ('multiprocessing.dummy.connection',
   'c:\\users\\ngothuan\\appdata\\local\\programs\\python\\python38\\lib\\multiprocessing\\dummy\\connection.py',
   'PYMODULE'),
  ('multiprocessing.forkserver',
   'c:\\users\\ngothuan\\appdata\\local\\programs\\python\\python38\\lib\\multiprocessing\\forkserver.py',
   'PYMODULE'),
  ('multiprocessing.heap',
   'c:\\users\\ngothuan\\appdata\\local\\programs\\python\\python38\\lib\\multiprocessing\\heap.py',
   'PYMODULE'),
  ('multiprocessing.managers',
   'c:\\users\\ngothuan\\appdata\\local\\programs\\python\\python38\\lib\\multiprocessing\\managers.py',
   'PYMODULE'),
  ('multiprocessing.pool',
   'c:\\users\\ngothuan\\appdata\\local\\programs\\python\\python38\\lib\\multiprocessing\\pool.py',
   'PYMODULE'),
  ('multiprocessing.popen_fork',
   'c:\\users\\ngothuan\\appdata\\local\\programs\\python\\python38\\lib\\multiprocessing\\popen_fork.py',
   'PYMODULE'),
  ('multiprocessing.popen_forkserver',
   'c:\\users\\ngothuan\\appdata\\local\\programs\\python\\python38\\lib\\multiprocessing\\popen_forkserver.py',
   'PYMODULE'),
  ('multiprocessing.popen_spawn_posix',
   'c:\\users\\ngothuan\\appdata\\local\\programs\\python\\python38\\lib\\multiprocessing\\popen_spawn_posix.py',
   'PYMODULE'),
  ('multiprocessing.popen_spawn_win32',
   'c:\\users\\ngothuan\\appdata\\local\\programs\\python\\python38\\lib\\multiprocessing\\popen_spawn_win32.py',
   'PYMODULE'),
  ('multiprocessing.process',
   'c:\\users\\ngothuan\\appdata\\local\\programs\\python\\python38\\lib\\multiprocessing\\process.py',
   'PYMODULE'),
  ('multiprocessing.queues',
   'c:\\users\\ngothuan\\appdata\\local\\programs\\python\\python38\\lib\\multiprocessing\\queues.py',
   'PYMODULE'),
  ('multiprocessing.reduction',
   'c:\\users\\ngothuan\\appdata\\local\\programs\\python\\python38\\lib\\multiprocessing\\reduction.py',
   'PYMODULE'),
  ('multiprocessing.resource_sharer',
   'c:\\users\\ngothuan\\appdata\\local\\programs\\python\\python38\\lib\\multiprocessing\\resource_sharer.py',
   'PYMODULE'),
  ('multiprocessing.resource_tracker',
   'c:\\users\\ngothuan\\appdata\\local\\programs\\python\\python38\\lib\\multiprocessing\\resource_tracker.py',
   'PYMODULE'),
  ('multiprocessing.shared_memory',
   'c:\\users\\ngothuan\\appdata\\local\\programs\\python\\python38\\lib\\multiprocessing\\shared_memory.py',
   'PYMODULE'),
  ('multiprocessing.sharedctypes',
   'c:\\users\\ngothuan\\appdata\\local\\programs\\python\\python38\\lib\\multiprocessing\\sharedctypes.py',
   'PYMODULE'),
  ('multiprocessing.spawn',
   'c:\\users\\ngothuan\\appdata\\local\\programs\\python\\python38\\lib\\multiprocessing\\spawn.py',
   'PYMODULE'),
  ('multiprocessing.synchronize',
   'c:\\users\\ngothuan\\appdata\\local\\programs\\python\\python38\\lib\\multiprocessing\\synchronize.py',
   'PYMODULE'),
  ('multiprocessing.util',
   'c:\\users\\ngothuan\\appdata\\local\\programs\\python\\python38\\lib\\multiprocessing\\util.py',
   'PYMODULE'),
  ('netrc',
   'c:\\users\\ngothuan\\appdata\\local\\programs\\python\\python38\\lib\\netrc.py',
   'PYMODULE'),
  ('nturl2path',
   'c:\\users\\ngothuan\\appdata\\local\\programs\\python\\python38\\lib\\nturl2path.py',
   'PYMODULE'),
  ('numbers',
   'c:\\users\\ngothuan\\appdata\\local\\programs\\python\\python38\\lib\\numbers.py',
   'PYMODULE'),
  ('numpy',
   'c:\\users\\ngothuan\\appdata\\local\\programs\\python\\python38\\lib\\site-packages\\numpy\\__init__.py',
   'PYMODULE'),
  ('numpy.__config__',
   'c:\\users\\ngothuan\\appdata\\local\\programs\\python\\python38\\lib\\site-packages\\numpy\\__config__.py',
   'PYMODULE'),
  ('numpy._distributor_init',
   'c:\\users\\ngothuan\\appdata\\local\\programs\\python\\python38\\lib\\site-packages\\numpy\\_distributor_init.py',
   'PYMODULE'),
  ('numpy._globals',
   'c:\\users\\ngothuan\\appdata\\local\\programs\\python\\python38\\lib\\site-packages\\numpy\\_globals.py',
   'PYMODULE'),
  ('numpy._pytesttester',
   'c:\\users\\ngothuan\\appdata\\local\\programs\\python\\python38\\lib\\site-packages\\numpy\\_pytesttester.py',
   'PYMODULE'),
  ('numpy._typing',
   'c:\\users\\ngothuan\\appdata\\local\\programs\\python\\python38\\lib\\site-packages\\numpy\\_typing\\__init__.py',
   'PYMODULE'),
  ('numpy._typing._add_docstring',
   'c:\\users\\ngothuan\\appdata\\local\\programs\\python\\python38\\lib\\site-packages\\numpy\\_typing\\_add_docstring.py',
   'PYMODULE'),
  ('numpy._typing._array_like',
   'c:\\users\\ngothuan\\appdata\\local\\programs\\python\\python38\\lib\\site-packages\\numpy\\_typing\\_array_like.py',
   'PYMODULE'),
  ('numpy._typing._char_codes',
   'c:\\users\\ngothuan\\appdata\\local\\programs\\python\\python38\\lib\\site-packages\\numpy\\_typing\\_char_codes.py',
   'PYMODULE'),
  ('numpy._typing._dtype_like',
   'c:\\users\\ngothuan\\appdata\\local\\programs\\python\\python38\\lib\\site-packages\\numpy\\_typing\\_dtype_like.py',
   'PYMODULE'),
  ('numpy._typing._generic_alias',
   'c:\\users\\ngothuan\\appdata\\local\\programs\\python\\python38\\lib\\site-packages\\numpy\\_typing\\_generic_alias.py',
   'PYMODULE'),
  ('numpy._typing._nbit',
   'c:\\users\\ngothuan\\appdata\\local\\programs\\python\\python38\\lib\\site-packages\\numpy\\_typing\\_nbit.py',
   'PYMODULE'),
  ('numpy._typing._nested_sequence',
   'c:\\users\\ngothuan\\appdata\\local\\programs\\python\\python38\\lib\\site-packages\\numpy\\_typing\\_nested_sequence.py',
   'PYMODULE'),
  ('numpy._typing._scalars',
   'c:\\users\\ngothuan\\appdata\\local\\programs\\python\\python38\\lib\\site-packages\\numpy\\_typing\\_scalars.py',
   'PYMODULE'),
  ('numpy._typing._shape',
   'c:\\users\\ngothuan\\appdata\\local\\programs\\python\\python38\\lib\\site-packages\\numpy\\_typing\\_shape.py',
   'PYMODULE'),
  ('numpy._version',
   'c:\\users\\ngothuan\\appdata\\local\\programs\\python\\python38\\lib\\site-packages\\numpy\\_version.py',
   'PYMODULE'),
  ('numpy.array_api',
   'c:\\users\\ngothuan\\appdata\\local\\programs\\python\\python38\\lib\\site-packages\\numpy\\array_api\\__init__.py',
   'PYMODULE'),
  ('numpy.array_api._array_object',
   'c:\\users\\ngothuan\\appdata\\local\\programs\\python\\python38\\lib\\site-packages\\numpy\\array_api\\_array_object.py',
   'PYMODULE'),
  ('numpy.array_api._constants',
   'c:\\users\\ngothuan\\appdata\\local\\programs\\python\\python38\\lib\\site-packages\\numpy\\array_api\\_constants.py',
   'PYMODULE'),
  ('numpy.array_api._creation_functions',
   'c:\\users\\ngothuan\\appdata\\local\\programs\\python\\python38\\lib\\site-packages\\numpy\\array_api\\_creation_functions.py',
   'PYMODULE'),
  ('numpy.array_api._data_type_functions',
   'c:\\users\\ngothuan\\appdata\\local\\programs\\python\\python38\\lib\\site-packages\\numpy\\array_api\\_data_type_functions.py',
   'PYMODULE'),
  ('numpy.array_api._dtypes',
   'c:\\users\\ngothuan\\appdata\\local\\programs\\python\\python38\\lib\\site-packages\\numpy\\array_api\\_dtypes.py',
   'PYMODULE'),
  ('numpy.array_api._elementwise_functions',
   'c:\\users\\ngothuan\\appdata\\local\\programs\\python\\python38\\lib\\site-packages\\numpy\\array_api\\_elementwise_functions.py',
   'PYMODULE'),
  ('numpy.array_api._manipulation_functions',
   'c:\\users\\ngothuan\\appdata\\local\\programs\\python\\python38\\lib\\site-packages\\numpy\\array_api\\_manipulation_functions.py',
   'PYMODULE'),
  ('numpy.array_api._searching_functions',
   'c:\\users\\ngothuan\\appdata\\local\\programs\\python\\python38\\lib\\site-packages\\numpy\\array_api\\_searching_functions.py',
   'PYMODULE'),
  ('numpy.array_api._set_functions',
   'c:\\users\\ngothuan\\appdata\\local\\programs\\python\\python38\\lib\\site-packages\\numpy\\array_api\\_set_functions.py',
   'PYMODULE'),
  ('numpy.array_api._sorting_functions',
   'c:\\users\\ngothuan\\appdata\\local\\programs\\python\\python38\\lib\\site-packages\\numpy\\array_api\\_sorting_functions.py',
   'PYMODULE'),
  ('numpy.array_api._statistical_functions',
   'c:\\users\\ngothuan\\appdata\\local\\programs\\python\\python38\\lib\\site-packages\\numpy\\array_api\\_statistical_functions.py',
   'PYMODULE'),
  ('numpy.array_api._typing',
   'c:\\users\\ngothuan\\appdata\\local\\programs\\python\\python38\\lib\\site-packages\\numpy\\array_api\\_typing.py',
   'PYMODULE'),
  ('numpy.array_api._utility_functions',
   'c:\\users\\ngothuan\\appdata\\local\\programs\\python\\python38\\lib\\site-packages\\numpy\\array_api\\_utility_functions.py',
   'PYMODULE'),
  ('numpy.array_api.linalg',
   'c:\\users\\ngothuan\\appdata\\local\\programs\\python\\python38\\lib\\site-packages\\numpy\\array_api\\linalg.py',
   'PYMODULE'),
  ('numpy.compat',
   'c:\\users\\ngothuan\\appdata\\local\\programs\\python\\python38\\lib\\site-packages\\numpy\\compat\\__init__.py',
   'PYMODULE'),
  ('numpy.compat._inspect',
   'c:\\users\\ngothuan\\appdata\\local\\programs\\python\\python38\\lib\\site-packages\\numpy\\compat\\_inspect.py',
   'PYMODULE'),
  ('numpy.compat.py3k',
   'c:\\users\\ngothuan\\appdata\\local\\programs\\python\\python38\\lib\\site-packages\\numpy\\compat\\py3k.py',
   'PYMODULE'),
  ('numpy.core',
   'c:\\users\\ngothuan\\appdata\\local\\programs\\python\\python38\\lib\\site-packages\\numpy\\core\\__init__.py',
   'PYMODULE'),
  ('numpy.core._add_newdocs',
   'c:\\users\\ngothuan\\appdata\\local\\programs\\python\\python38\\lib\\site-packages\\numpy\\core\\_add_newdocs.py',
   'PYMODULE'),
  ('numpy.core._add_newdocs_scalars',
   'c:\\users\\ngothuan\\appdata\\local\\programs\\python\\python38\\lib\\site-packages\\numpy\\core\\_add_newdocs_scalars.py',
   'PYMODULE'),
  ('numpy.core._asarray',
   'c:\\users\\ngothuan\\appdata\\local\\programs\\python\\python38\\lib\\site-packages\\numpy\\core\\_asarray.py',
   'PYMODULE'),
  ('numpy.core._dtype',
   'c:\\users\\ngothuan\\appdata\\local\\programs\\python\\python38\\lib\\site-packages\\numpy\\core\\_dtype.py',
   'PYMODULE'),
  ('numpy.core._dtype_ctypes',
   'c:\\users\\ngothuan\\appdata\\local\\programs\\python\\python38\\lib\\site-packages\\numpy\\core\\_dtype_ctypes.py',
   'PYMODULE'),
  ('numpy.core._exceptions',
   'c:\\users\\ngothuan\\appdata\\local\\programs\\python\\python38\\lib\\site-packages\\numpy\\core\\_exceptions.py',
   'PYMODULE'),
  ('numpy.core._internal',
   'c:\\users\\ngothuan\\appdata\\local\\programs\\python\\python38\\lib\\site-packages\\numpy\\core\\_internal.py',
   'PYMODULE'),
  ('numpy.core._machar',
   'c:\\users\\ngothuan\\appdata\\local\\programs\\python\\python38\\lib\\site-packages\\numpy\\core\\_machar.py',
   'PYMODULE'),
  ('numpy.core._methods',
   'c:\\users\\ngothuan\\appdata\\local\\programs\\python\\python38\\lib\\site-packages\\numpy\\core\\_methods.py',
   'PYMODULE'),
  ('numpy.core._string_helpers',
   'c:\\users\\ngothuan\\appdata\\local\\programs\\python\\python38\\lib\\site-packages\\numpy\\core\\_string_helpers.py',
   'PYMODULE'),
  ('numpy.core._type_aliases',
   'c:\\users\\ngothuan\\appdata\\local\\programs\\python\\python38\\lib\\site-packages\\numpy\\core\\_type_aliases.py',
   'PYMODULE'),
  ('numpy.core._ufunc_config',
   'c:\\users\\ngothuan\\appdata\\local\\programs\\python\\python38\\lib\\site-packages\\numpy\\core\\_ufunc_config.py',
   'PYMODULE'),
  ('numpy.core.arrayprint',
   'c:\\users\\ngothuan\\appdata\\local\\programs\\python\\python38\\lib\\site-packages\\numpy\\core\\arrayprint.py',
   'PYMODULE'),
  ('numpy.core.defchararray',
   'c:\\users\\ngothuan\\appdata\\local\\programs\\python\\python38\\lib\\site-packages\\numpy\\core\\defchararray.py',
   'PYMODULE'),
  ('numpy.core.einsumfunc',
   'c:\\users\\ngothuan\\appdata\\local\\programs\\python\\python38\\lib\\site-packages\\numpy\\core\\einsumfunc.py',
   'PYMODULE'),
  ('numpy.core.fromnumeric',
   'c:\\users\\ngothuan\\appdata\\local\\programs\\python\\python38\\lib\\site-packages\\numpy\\core\\fromnumeric.py',
   'PYMODULE'),
  ('numpy.core.function_base',
   'c:\\users\\ngothuan\\appdata\\local\\programs\\python\\python38\\lib\\site-packages\\numpy\\core\\function_base.py',
   'PYMODULE'),
  ('numpy.core.getlimits',
   'c:\\users\\ngothuan\\appdata\\local\\programs\\python\\python38\\lib\\site-packages\\numpy\\core\\getlimits.py',
   'PYMODULE'),
  ('numpy.core.memmap',
   'c:\\users\\ngothuan\\appdata\\local\\programs\\python\\python38\\lib\\site-packages\\numpy\\core\\memmap.py',
   'PYMODULE'),
  ('numpy.core.multiarray',
   'c:\\users\\ngothuan\\appdata\\local\\programs\\python\\python38\\lib\\site-packages\\numpy\\core\\multiarray.py',
   'PYMODULE'),
  ('numpy.core.numeric',
   'c:\\users\\ngothuan\\appdata\\local\\programs\\python\\python38\\lib\\site-packages\\numpy\\core\\numeric.py',
   'PYMODULE'),
  ('numpy.core.numerictypes',
   'c:\\users\\ngothuan\\appdata\\local\\programs\\python\\python38\\lib\\site-packages\\numpy\\core\\numerictypes.py',
   'PYMODULE'),
  ('numpy.core.overrides',
   'c:\\users\\ngothuan\\appdata\\local\\programs\\python\\python38\\lib\\site-packages\\numpy\\core\\overrides.py',
   'PYMODULE'),
  ('numpy.core.records',
   'c:\\users\\ngothuan\\appdata\\local\\programs\\python\\python38\\lib\\site-packages\\numpy\\core\\records.py',
   'PYMODULE'),
  ('numpy.core.shape_base',
   'c:\\users\\ngothuan\\appdata\\local\\programs\\python\\python38\\lib\\site-packages\\numpy\\core\\shape_base.py',
   'PYMODULE'),
  ('numpy.core.umath',
   'c:\\users\\ngothuan\\appdata\\local\\programs\\python\\python38\\lib\\site-packages\\numpy\\core\\umath.py',
   'PYMODULE'),
  ('numpy.ctypeslib',
   'c:\\users\\ngothuan\\appdata\\local\\programs\\python\\python38\\lib\\site-packages\\numpy\\ctypeslib.py',
   'PYMODULE'),
  ('numpy.distutils',
   'c:\\users\\ngothuan\\appdata\\local\\programs\\python\\python38\\lib\\site-packages\\numpy\\distutils\\__init__.py',
   'PYMODULE'),
  ('numpy.distutils.cpuinfo',
   'c:\\users\\ngothuan\\appdata\\local\\programs\\python\\python38\\lib\\site-packages\\numpy\\distutils\\cpuinfo.py',
   'PYMODULE'),
  ('numpy.fft',
   'c:\\users\\ngothuan\\appdata\\local\\programs\\python\\python38\\lib\\site-packages\\numpy\\fft\\__init__.py',
   'PYMODULE'),
  ('numpy.fft._pocketfft',
   'c:\\users\\ngothuan\\appdata\\local\\programs\\python\\python38\\lib\\site-packages\\numpy\\fft\\_pocketfft.py',
   'PYMODULE'),
  ('numpy.fft.helper',
   'c:\\users\\ngothuan\\appdata\\local\\programs\\python\\python38\\lib\\site-packages\\numpy\\fft\\helper.py',
   'PYMODULE'),
  ('numpy.lib',
   'c:\\users\\ngothuan\\appdata\\local\\programs\\python\\python38\\lib\\site-packages\\numpy\\lib\\__init__.py',
   'PYMODULE'),
  ('numpy.lib._datasource',
   'c:\\users\\ngothuan\\appdata\\local\\programs\\python\\python38\\lib\\site-packages\\numpy\\lib\\_datasource.py',
   'PYMODULE'),
  ('numpy.lib._iotools',
   'c:\\users\\ngothuan\\appdata\\local\\programs\\python\\python38\\lib\\site-packages\\numpy\\lib\\_iotools.py',
   'PYMODULE'),
  ('numpy.lib._version',
   'c:\\users\\ngothuan\\appdata\\local\\programs\\python\\python38\\lib\\site-packages\\numpy\\lib\\_version.py',
   'PYMODULE'),
  ('numpy.lib.arraypad',
   'c:\\users\\ngothuan\\appdata\\local\\programs\\python\\python38\\lib\\site-packages\\numpy\\lib\\arraypad.py',
   'PYMODULE'),
  ('numpy.lib.arraysetops',
   'c:\\users\\ngothuan\\appdata\\local\\programs\\python\\python38\\lib\\site-packages\\numpy\\lib\\arraysetops.py',
   'PYMODULE'),
  ('numpy.lib.arrayterator',
   'c:\\users\\ngothuan\\appdata\\local\\programs\\python\\python38\\lib\\site-packages\\numpy\\lib\\arrayterator.py',
   'PYMODULE'),
  ('numpy.lib.format',
   'c:\\users\\ngothuan\\appdata\\local\\programs\\python\\python38\\lib\\site-packages\\numpy\\lib\\format.py',
   'PYMODULE'),
  ('numpy.lib.function_base',
   'c:\\users\\ngothuan\\appdata\\local\\programs\\python\\python38\\lib\\site-packages\\numpy\\lib\\function_base.py',
   'PYMODULE'),
  ('numpy.lib.histograms',
   'c:\\users\\ngothuan\\appdata\\local\\programs\\python\\python38\\lib\\site-packages\\numpy\\lib\\histograms.py',
   'PYMODULE'),
  ('numpy.lib.index_tricks',
   'c:\\users\\ngothuan\\appdata\\local\\programs\\python\\python38\\lib\\site-packages\\numpy\\lib\\index_tricks.py',
   'PYMODULE'),
  ('numpy.lib.mixins',
   'c:\\users\\ngothuan\\appdata\\local\\programs\\python\\python38\\lib\\site-packages\\numpy\\lib\\mixins.py',
   'PYMODULE'),
  ('numpy.lib.nanfunctions',
   'c:\\users\\ngothuan\\appdata\\local\\programs\\python\\python38\\lib\\site-packages\\numpy\\lib\\nanfunctions.py',
   'PYMODULE'),
  ('numpy.lib.npyio',
   'c:\\users\\ngothuan\\appdata\\local\\programs\\python\\python38\\lib\\site-packages\\numpy\\lib\\npyio.py',
   'PYMODULE'),
  ('numpy.lib.polynomial',
   'c:\\users\\ngothuan\\appdata\\local\\programs\\python\\python38\\lib\\site-packages\\numpy\\lib\\polynomial.py',
   'PYMODULE'),
  ('numpy.lib.scimath',
   'c:\\users\\ngothuan\\appdata\\local\\programs\\python\\python38\\lib\\site-packages\\numpy\\lib\\scimath.py',
   'PYMODULE'),
  ('numpy.lib.shape_base',
   'c:\\users\\ngothuan\\appdata\\local\\programs\\python\\python38\\lib\\site-packages\\numpy\\lib\\shape_base.py',
   'PYMODULE'),
  ('numpy.lib.stride_tricks',
   'c:\\users\\ngothuan\\appdata\\local\\programs\\python\\python38\\lib\\site-packages\\numpy\\lib\\stride_tricks.py',
   'PYMODULE'),
  ('numpy.lib.twodim_base',
   'c:\\users\\ngothuan\\appdata\\local\\programs\\python\\python38\\lib\\site-packages\\numpy\\lib\\twodim_base.py',
   'PYMODULE'),
  ('numpy.lib.type_check',
   'c:\\users\\ngothuan\\appdata\\local\\programs\\python\\python38\\lib\\site-packages\\numpy\\lib\\type_check.py',
   'PYMODULE'),
  ('numpy.lib.ufunclike',
   'c:\\users\\ngothuan\\appdata\\local\\programs\\python\\python38\\lib\\site-packages\\numpy\\lib\\ufunclike.py',
   'PYMODULE'),
  ('numpy.lib.utils',
   'c:\\users\\ngothuan\\appdata\\local\\programs\\python\\python38\\lib\\site-packages\\numpy\\lib\\utils.py',
   'PYMODULE'),
  ('numpy.linalg',
   'c:\\users\\ngothuan\\appdata\\local\\programs\\python\\python38\\lib\\site-packages\\numpy\\linalg\\__init__.py',
   'PYMODULE'),
  ('numpy.linalg.linalg',
   'c:\\users\\ngothuan\\appdata\\local\\programs\\python\\python38\\lib\\site-packages\\numpy\\linalg\\linalg.py',
   'PYMODULE'),
  ('numpy.ma',
   'c:\\users\\ngothuan\\appdata\\local\\programs\\python\\python38\\lib\\site-packages\\numpy\\ma\\__init__.py',
   'PYMODULE'),
  ('numpy.ma.core',
   'c:\\users\\ngothuan\\appdata\\local\\programs\\python\\python38\\lib\\site-packages\\numpy\\ma\\core.py',
   'PYMODULE'),
  ('numpy.ma.extras',
   'c:\\users\\ngothuan\\appdata\\local\\programs\\python\\python38\\lib\\site-packages\\numpy\\ma\\extras.py',
   'PYMODULE'),
  ('numpy.ma.mrecords',
   'c:\\users\\ngothuan\\appdata\\local\\programs\\python\\python38\\lib\\site-packages\\numpy\\ma\\mrecords.py',
   'PYMODULE'),
  ('numpy.matrixlib',
   'c:\\users\\ngothuan\\appdata\\local\\programs\\python\\python38\\lib\\site-packages\\numpy\\matrixlib\\__init__.py',
   'PYMODULE'),
  ('numpy.matrixlib.defmatrix',
   'c:\\users\\ngothuan\\appdata\\local\\programs\\python\\python38\\lib\\site-packages\\numpy\\matrixlib\\defmatrix.py',
   'PYMODULE'),
  ('numpy.polynomial',
   'c:\\users\\ngothuan\\appdata\\local\\programs\\python\\python38\\lib\\site-packages\\numpy\\polynomial\\__init__.py',
   'PYMODULE'),
  ('numpy.polynomial._polybase',
   'c:\\users\\ngothuan\\appdata\\local\\programs\\python\\python38\\lib\\site-packages\\numpy\\polynomial\\_polybase.py',
   'PYMODULE'),
  ('numpy.polynomial.chebyshev',
   'c:\\users\\ngothuan\\appdata\\local\\programs\\python\\python38\\lib\\site-packages\\numpy\\polynomial\\chebyshev.py',
   'PYMODULE'),
  ('numpy.polynomial.hermite',
   'c:\\users\\ngothuan\\appdata\\local\\programs\\python\\python38\\lib\\site-packages\\numpy\\polynomial\\hermite.py',
   'PYMODULE'),
  ('numpy.polynomial.hermite_e',
   'c:\\users\\ngothuan\\appdata\\local\\programs\\python\\python38\\lib\\site-packages\\numpy\\polynomial\\hermite_e.py',
   'PYMODULE'),
  ('numpy.polynomial.laguerre',
   'c:\\users\\ngothuan\\appdata\\local\\programs\\python\\python38\\lib\\site-packages\\numpy\\polynomial\\laguerre.py',
   'PYMODULE'),
  ('numpy.polynomial.legendre',
   'c:\\users\\ngothuan\\appdata\\local\\programs\\python\\python38\\lib\\site-packages\\numpy\\polynomial\\legendre.py',
   'PYMODULE'),
  ('numpy.polynomial.polynomial',
   'c:\\users\\ngothuan\\appdata\\local\\programs\\python\\python38\\lib\\site-packages\\numpy\\polynomial\\polynomial.py',
   'PYMODULE'),
  ('numpy.polynomial.polyutils',
   'c:\\users\\ngothuan\\appdata\\local\\programs\\python\\python38\\lib\\site-packages\\numpy\\polynomial\\polyutils.py',
   'PYMODULE'),
  ('numpy.random',
   'c:\\users\\ngothuan\\appdata\\local\\programs\\python\\python38\\lib\\site-packages\\numpy\\random\\__init__.py',
   'PYMODULE'),
  ('numpy.random._pickle',
   'c:\\users\\ngothuan\\appdata\\local\\programs\\python\\python38\\lib\\site-packages\\numpy\\random\\_pickle.py',
   'PYMODULE'),
  ('numpy.testing',
   'c:\\users\\ngothuan\\appdata\\local\\programs\\python\\python38\\lib\\site-packages\\numpy\\testing\\__init__.py',
   'PYMODULE'),
  ('numpy.testing._private',
   'c:\\users\\ngothuan\\appdata\\local\\programs\\python\\python38\\lib\\site-packages\\numpy\\testing\\_private\\__init__.py',
   'PYMODULE'),
  ('numpy.testing._private.decorators',
   'c:\\users\\ngothuan\\appdata\\local\\programs\\python\\python38\\lib\\site-packages\\numpy\\testing\\_private\\decorators.py',
   'PYMODULE'),
  ('numpy.testing._private.extbuild',
   'c:\\users\\ngothuan\\appdata\\local\\programs\\python\\python38\\lib\\site-packages\\numpy\\testing\\_private\\extbuild.py',
   'PYMODULE'),
  ('numpy.testing._private.noseclasses',
   'c:\\users\\ngothuan\\appdata\\local\\programs\\python\\python38\\lib\\site-packages\\numpy\\testing\\_private\\noseclasses.py',
   'PYMODULE'),
  ('numpy.testing._private.nosetester',
   'c:\\users\\ngothuan\\appdata\\local\\programs\\python\\python38\\lib\\site-packages\\numpy\\testing\\_private\\nosetester.py',
   'PYMODULE'),
  ('numpy.testing._private.parameterized',
   'c:\\users\\ngothuan\\appdata\\local\\programs\\python\\python38\\lib\\site-packages\\numpy\\testing\\_private\\parameterized.py',
   'PYMODULE'),
  ('numpy.testing._private.utils',
   'c:\\users\\ngothuan\\appdata\\local\\programs\\python\\python38\\lib\\site-packages\\numpy\\testing\\_private\\utils.py',
   'PYMODULE'),
  ('numpy.typing',
   'c:\\users\\ngothuan\\appdata\\local\\programs\\python\\python38\\lib\\site-packages\\numpy\\typing\\__init__.py',
   'PYMODULE'),
  ('numpy.version',
   'c:\\users\\ngothuan\\appdata\\local\\programs\\python\\python38\\lib\\site-packages\\numpy\\version.py',
   'PYMODULE'),
  ('opcode',
   'c:\\users\\ngothuan\\appdata\\local\\programs\\python\\python38\\lib\\opcode.py',
   'PYMODULE'),
  ('optparse',
   'c:\\users\\ngothuan\\appdata\\local\\programs\\python\\python38\\lib\\optparse.py',
   'PYMODULE'),
  ('pass_catcha',
   '\\\\Mac\\Home\\Desktop\\unlock-captcha-tw\\pass_catcha.py',
   'PYMODULE'),
  ('pathlib',
   'c:\\users\\ngothuan\\appdata\\local\\programs\\python\\python38\\lib\\pathlib.py',
   'PYMODULE'),
  ('pdb',
   'c:\\users\\ngothuan\\appdata\\local\\programs\\python\\python38\\lib\\pdb.py',
   'PYMODULE'),
  ('pickle',
   'c:\\users\\ngothuan\\appdata\\local\\programs\\python\\python38\\lib\\pickle.py',
   'PYMODULE'),
  ('pkgutil',
   'c:\\users\\ngothuan\\appdata\\local\\programs\\python\\python38\\lib\\pkgutil.py',
   'PYMODULE'),
  ('platform',
   'c:\\users\\ngothuan\\appdata\\local\\programs\\python\\python38\\lib\\platform.py',
   'PYMODULE'),
  ('pprint',
   'c:\\users\\ngothuan\\appdata\\local\\programs\\python\\python38\\lib\\pprint.py',
   'PYMODULE'),
  ('py_compile',
   'c:\\users\\ngothuan\\appdata\\local\\programs\\python\\python38\\lib\\py_compile.py',
   'PYMODULE'),
  ('pydoc',
   'c:\\users\\ngothuan\\appdata\\local\\programs\\python\\python38\\lib\\pydoc.py',
   'PYMODULE'),
  ('pydoc_data',
   'c:\\users\\ngothuan\\appdata\\local\\programs\\python\\python38\\lib\\pydoc_data\\__init__.py',
   'PYMODULE'),
  ('pydoc_data.topics',
   'c:\\users\\ngothuan\\appdata\\local\\programs\\python\\python38\\lib\\pydoc_data\\topics.py',
   'PYMODULE'),
  ('queue',
   'c:\\users\\ngothuan\\appdata\\local\\programs\\python\\python38\\lib\\queue.py',
   'PYMODULE'),
  ('quopri',
   'c:\\users\\ngothuan\\appdata\\local\\programs\\python\\python38\\lib\\quopri.py',
   'PYMODULE'),
  ('random',
   'c:\\users\\ngothuan\\appdata\\local\\programs\\python\\python38\\lib\\random.py',
   'PYMODULE'),
  ('requests',
   'c:\\users\\ngothuan\\appdata\\local\\programs\\python\\python38\\lib\\site-packages\\requests\\__init__.py',
   'PYMODULE'),
  ('requests.__version__',
   'c:\\users\\ngothuan\\appdata\\local\\programs\\python\\python38\\lib\\site-packages\\requests\\__version__.py',
   'PYMODULE'),
  ('requests._internal_utils',
   'c:\\users\\ngothuan\\appdata\\local\\programs\\python\\python38\\lib\\site-packages\\requests\\_internal_utils.py',
   'PYMODULE'),
  ('requests.adapters',
   'c:\\users\\ngothuan\\appdata\\local\\programs\\python\\python38\\lib\\site-packages\\requests\\adapters.py',
   'PYMODULE'),
  ('requests.api',
   'c:\\users\\ngothuan\\appdata\\local\\programs\\python\\python38\\lib\\site-packages\\requests\\api.py',
   'PYMODULE'),
  ('requests.auth',
   'c:\\users\\ngothuan\\appdata\\local\\programs\\python\\python38\\lib\\site-packages\\requests\\auth.py',
   'PYMODULE'),
  ('requests.certs',
   'c:\\users\\ngothuan\\appdata\\local\\programs\\python\\python38\\lib\\site-packages\\requests\\certs.py',
   'PYMODULE'),
  ('requests.compat',
   'c:\\users\\ngothuan\\appdata\\local\\programs\\python\\python38\\lib\\site-packages\\requests\\compat.py',
   'PYMODULE'),
  ('requests.cookies',
   'c:\\users\\ngothuan\\appdata\\local\\programs\\python\\python38\\lib\\site-packages\\requests\\cookies.py',
   'PYMODULE'),
  ('requests.exceptions',
   'c:\\users\\ngothuan\\appdata\\local\\programs\\python\\python38\\lib\\site-packages\\requests\\exceptions.py',
   'PYMODULE'),
  ('requests.hooks',
   'c:\\users\\ngothuan\\appdata\\local\\programs\\python\\python38\\lib\\site-packages\\requests\\hooks.py',
   'PYMODULE'),
  ('requests.models',
   'c:\\users\\ngothuan\\appdata\\local\\programs\\python\\python38\\lib\\site-packages\\requests\\models.py',
   'PYMODULE'),
  ('requests.packages',
   'c:\\users\\ngothuan\\appdata\\local\\programs\\python\\python38\\lib\\site-packages\\requests\\packages.py',
   'PYMODULE'),
  ('requests.sessions',
   'c:\\users\\ngothuan\\appdata\\local\\programs\\python\\python38\\lib\\site-packages\\requests\\sessions.py',
   'PYMODULE'),
  ('requests.status_codes',
   'c:\\users\\ngothuan\\appdata\\local\\programs\\python\\python38\\lib\\site-packages\\requests\\status_codes.py',
   'PYMODULE'),
  ('requests.structures',
   'c:\\users\\ngothuan\\appdata\\local\\programs\\python\\python38\\lib\\site-packages\\requests\\structures.py',
   'PYMODULE'),
  ('requests.utils',
   'c:\\users\\ngothuan\\appdata\\local\\programs\\python\\python38\\lib\\site-packages\\requests\\utils.py',
   'PYMODULE'),
  ('runpy',
   'c:\\users\\ngothuan\\appdata\\local\\programs\\python\\python38\\lib\\runpy.py',
   'PYMODULE'),
  ('secrets',
   'c:\\users\\ngothuan\\appdata\\local\\programs\\python\\python38\\lib\\secrets.py',
   'PYMODULE'),
  ('selectors',
   'c:\\users\\ngothuan\\appdata\\local\\programs\\python\\python38\\lib\\selectors.py',
   'PYMODULE'),
  ('selenium',
   'c:\\users\\ngothuan\\appdata\\local\\programs\\python\\python38\\lib\\site-packages\\selenium\\__init__.py',
   'PYMODULE'),
  ('selenium.common',
   'c:\\users\\ngothuan\\appdata\\local\\programs\\python\\python38\\lib\\site-packages\\selenium\\common\\__init__.py',
   'PYMODULE'),
  ('selenium.common.exceptions',
   'c:\\users\\ngothuan\\appdata\\local\\programs\\python\\python38\\lib\\site-packages\\selenium\\common\\exceptions.py',
   'PYMODULE'),
  ('selenium.types',
   'c:\\users\\ngothuan\\appdata\\local\\programs\\python\\python38\\lib\\site-packages\\selenium\\types.py',
   'PYMODULE'),
  ('selenium.webdriver',
   'c:\\users\\ngothuan\\appdata\\local\\programs\\python\\python38\\lib\\site-packages\\selenium\\webdriver\\__init__.py',
   'PYMODULE'),
  ('selenium.webdriver.chrome',
   'c:\\users\\ngothuan\\appdata\\local\\programs\\python\\python38\\lib\\site-packages\\selenium\\webdriver\\chrome\\__init__.py',
   'PYMODULE'),
  ('selenium.webdriver.chrome.options',
   'c:\\users\\ngothuan\\appdata\\local\\programs\\python\\python38\\lib\\site-packages\\selenium\\webdriver\\chrome\\options.py',
   'PYMODULE'),
  ('selenium.webdriver.chrome.remote_connection',
   'c:\\users\\ngothuan\\appdata\\local\\programs\\python\\python38\\lib\\site-packages\\selenium\\webdriver\\chrome\\remote_connection.py',
   'PYMODULE'),
  ('selenium.webdriver.chrome.service',
   'c:\\users\\ngothuan\\appdata\\local\\programs\\python\\python38\\lib\\site-packages\\selenium\\webdriver\\chrome\\service.py',
   'PYMODULE'),
  ('selenium.webdriver.chrome.webdriver',
   'c:\\users\\ngothuan\\appdata\\local\\programs\\python\\python38\\lib\\site-packages\\selenium\\webdriver\\chrome\\webdriver.py',
   'PYMODULE'),
  ('selenium.webdriver.chromium',
   'c:\\users\\ngothuan\\appdata\\local\\programs\\python\\python38\\lib\\site-packages\\selenium\\webdriver\\chromium\\__init__.py',
   'PYMODULE'),
  ('selenium.webdriver.chromium.options',
   'c:\\users\\ngothuan\\appdata\\local\\programs\\python\\python38\\lib\\site-packages\\selenium\\webdriver\\chromium\\options.py',
   'PYMODULE'),
  ('selenium.webdriver.chromium.remote_connection',
   'c:\\users\\ngothuan\\appdata\\local\\programs\\python\\python38\\lib\\site-packages\\selenium\\webdriver\\chromium\\remote_connection.py',
   'PYMODULE'),
  ('selenium.webdriver.chromium.service',
   'c:\\users\\ngothuan\\appdata\\local\\programs\\python\\python38\\lib\\site-packages\\selenium\\webdriver\\chromium\\service.py',
   'PYMODULE'),
  ('selenium.webdriver.chromium.webdriver',
   'c:\\users\\ngothuan\\appdata\\local\\programs\\python\\python38\\lib\\site-packages\\selenium\\webdriver\\chromium\\webdriver.py',
   'PYMODULE'),
  ('selenium.webdriver.common',
   'c:\\users\\ngothuan\\appdata\\local\\programs\\python\\python38\\lib\\site-packages\\selenium\\webdriver\\common\\__init__.py',
   'PYMODULE'),
  ('selenium.webdriver.common.action_chains',
   'c:\\users\\ngothuan\\appdata\\local\\programs\\python\\python38\\lib\\site-packages\\selenium\\webdriver\\common\\action_chains.py',
   'PYMODULE'),
  ('selenium.webdriver.common.actions',
   'c:\\users\\ngothuan\\appdata\\local\\programs\\python\\python38\\lib\\site-packages\\selenium\\webdriver\\common\\actions\\__init__.py',
   'PYMODULE'),
  ('selenium.webdriver.common.actions.action_builder',
   'c:\\users\\ngothuan\\appdata\\local\\programs\\python\\python38\\lib\\site-packages\\selenium\\webdriver\\common\\actions\\action_builder.py',
   'PYMODULE'),
  ('selenium.webdriver.common.actions.input_device',
   'c:\\users\\ngothuan\\appdata\\local\\programs\\python\\python38\\lib\\site-packages\\selenium\\webdriver\\common\\actions\\input_device.py',
   'PYMODULE'),
  ('selenium.webdriver.common.actions.interaction',
   'c:\\users\\ngothuan\\appdata\\local\\programs\\python\\python38\\lib\\site-packages\\selenium\\webdriver\\common\\actions\\interaction.py',
   'PYMODULE'),
  ('selenium.webdriver.common.actions.key_actions',
   'c:\\users\\ngothuan\\appdata\\local\\programs\\python\\python38\\lib\\site-packages\\selenium\\webdriver\\common\\actions\\key_actions.py',
   'PYMODULE'),
  ('selenium.webdriver.common.actions.key_input',
   'c:\\users\\ngothuan\\appdata\\local\\programs\\python\\python38\\lib\\site-packages\\selenium\\webdriver\\common\\actions\\key_input.py',
   'PYMODULE'),
  ('selenium.webdriver.common.actions.mouse_button',
   'c:\\users\\ngothuan\\appdata\\local\\programs\\python\\python38\\lib\\site-packages\\selenium\\webdriver\\common\\actions\\mouse_button.py',
   'PYMODULE'),
  ('selenium.webdriver.common.actions.pointer_actions',
   'c:\\users\\ngothuan\\appdata\\local\\programs\\python\\python38\\lib\\site-packages\\selenium\\webdriver\\common\\actions\\pointer_actions.py',
   'PYMODULE'),
  ('selenium.webdriver.common.actions.pointer_input',
   'c:\\users\\ngothuan\\appdata\\local\\programs\\python\\python38\\lib\\site-packages\\selenium\\webdriver\\common\\actions\\pointer_input.py',
   'PYMODULE'),
  ('selenium.webdriver.common.actions.wheel_actions',
   'c:\\users\\ngothuan\\appdata\\local\\programs\\python\\python38\\lib\\site-packages\\selenium\\webdriver\\common\\actions\\wheel_actions.py',
   'PYMODULE'),
  ('selenium.webdriver.common.actions.wheel_input',
   'c:\\users\\ngothuan\\appdata\\local\\programs\\python\\python38\\lib\\site-packages\\selenium\\webdriver\\common\\actions\\wheel_input.py',
   'PYMODULE'),
  ('selenium.webdriver.common.alert',
   'c:\\users\\ngothuan\\appdata\\local\\programs\\python\\python38\\lib\\site-packages\\selenium\\webdriver\\common\\alert.py',
   'PYMODULE'),
  ('selenium.webdriver.common.by',
   'c:\\users\\ngothuan\\appdata\\local\\programs\\python\\python38\\lib\\site-packages\\selenium\\webdriver\\common\\by.py',
   'PYMODULE'),
  ('selenium.webdriver.common.desired_capabilities',
   'c:\\users\\ngothuan\\appdata\\local\\programs\\python\\python38\\lib\\site-packages\\selenium\\webdriver\\common\\desired_capabilities.py',
   'PYMODULE'),
  ('selenium.webdriver.common.driver_finder',
   'c:\\users\\ngothuan\\appdata\\local\\programs\\python\\python38\\lib\\site-packages\\selenium\\webdriver\\common\\driver_finder.py',
   'PYMODULE'),
  ('selenium.webdriver.common.keys',
   'c:\\users\\ngothuan\\appdata\\local\\programs\\python\\python38\\lib\\site-packages\\selenium\\webdriver\\common\\keys.py',
   'PYMODULE'),
  ('selenium.webdriver.common.options',
   'c:\\users\\ngothuan\\appdata\\local\\programs\\python\\python38\\lib\\site-packages\\selenium\\webdriver\\common\\options.py',
   'PYMODULE'),
  ('selenium.webdriver.common.print_page_options',
   'c:\\users\\ngothuan\\appdata\\local\\programs\\python\\python38\\lib\\site-packages\\selenium\\webdriver\\common\\print_page_options.py',
   'PYMODULE'),
  ('selenium.webdriver.common.proxy',
   'c:\\users\\ngothuan\\appdata\\local\\programs\\python\\python38\\lib\\site-packages\\selenium\\webdriver\\common\\proxy.py',
   'PYMODULE'),
  ('selenium.webdriver.common.selenium_manager',
   'c:\\users\\ngothuan\\appdata\\local\\programs\\python\\python38\\lib\\site-packages\\selenium\\webdriver\\common\\selenium_manager.py',
   'PYMODULE'),
  ('selenium.webdriver.common.service',
   'c:\\users\\ngothuan\\appdata\\local\\programs\\python\\python38\\lib\\site-packages\\selenium\\webdriver\\common\\service.py',
   'PYMODULE'),
  ('selenium.webdriver.common.timeouts',
   'c:\\users\\ngothuan\\appdata\\local\\programs\\python\\python38\\lib\\site-packages\\selenium\\webdriver\\common\\timeouts.py',
   'PYMODULE'),
  ('selenium.webdriver.common.utils',
   'c:\\users\\ngothuan\\appdata\\local\\programs\\python\\python38\\lib\\site-packages\\selenium\\webdriver\\common\\utils.py',
   'PYMODULE'),
  ('selenium.webdriver.common.virtual_authenticator',
   'c:\\users\\ngothuan\\appdata\\local\\programs\\python\\python38\\lib\\site-packages\\selenium\\webdriver\\common\\virtual_authenticator.py',
   'PYMODULE'),
  ('selenium.webdriver.edge',
   'c:\\users\\ngothuan\\appdata\\local\\programs\\python\\python38\\lib\\site-packages\\selenium\\webdriver\\edge\\__init__.py',
   'PYMODULE'),
  ('selenium.webdriver.edge.options',
   'c:\\users\\ngothuan\\appdata\\local\\programs\\python\\python38\\lib\\site-packages\\selenium\\webdriver\\edge\\options.py',
   'PYMODULE'),
  ('selenium.webdriver.edge.remote_connection',
   'c:\\users\\ngothuan\\appdata\\local\\programs\\python\\python38\\lib\\site-packages\\selenium\\webdriver\\edge\\remote_connection.py',
   'PYMODULE'),
  ('selenium.webdriver.edge.service',
   'c:\\users\\ngothuan\\appdata\\local\\programs\\python\\python38\\lib\\site-packages\\selenium\\webdriver\\edge\\service.py',
   'PYMODULE'),
  ('selenium.webdriver.edge.webdriver',
   'c:\\users\\ngothuan\\appdata\\local\\programs\\python\\python38\\lib\\site-packages\\selenium\\webdriver\\edge\\webdriver.py',
   'PYMODULE'),
  ('selenium.webdriver.firefox',
   'c:\\users\\ngothuan\\appdata\\local\\programs\\python\\python38\\lib\\site-packages\\selenium\\webdriver\\firefox\\__init__.py',
   'PYMODULE'),
  ('selenium.webdriver.firefox.firefox_binary',
   'c:\\users\\ngothuan\\appdata\\local\\programs\\python\\python38\\lib\\site-packages\\selenium\\webdriver\\firefox\\firefox_binary.py',
   'PYMODULE'),
  ('selenium.webdriver.firefox.firefox_profile',
   'c:\\users\\ngothuan\\appdata\\local\\programs\\python\\python38\\lib\\site-packages\\selenium\\webdriver\\firefox\\firefox_profile.py',
   'PYMODULE'),
  ('selenium.webdriver.firefox.options',
   'c:\\users\\ngothuan\\appdata\\local\\programs\\python\\python38\\lib\\site-packages\\selenium\\webdriver\\firefox\\options.py',
   'PYMODULE'),
  ('selenium.webdriver.firefox.remote_connection',
   'c:\\users\\ngothuan\\appdata\\local\\programs\\python\\python38\\lib\\site-packages\\selenium\\webdriver\\firefox\\remote_connection.py',
   'PYMODULE'),
  ('selenium.webdriver.firefox.service',
   'c:\\users\\ngothuan\\appdata\\local\\programs\\python\\python38\\lib\\site-packages\\selenium\\webdriver\\firefox\\service.py',
   'PYMODULE'),
  ('selenium.webdriver.firefox.webdriver',
   'c:\\users\\ngothuan\\appdata\\local\\programs\\python\\python38\\lib\\site-packages\\selenium\\webdriver\\firefox\\webdriver.py',
   'PYMODULE'),
  ('selenium.webdriver.ie',
   'c:\\users\\ngothuan\\appdata\\local\\programs\\python\\python38\\lib\\site-packages\\selenium\\webdriver\\ie\\__init__.py',
   'PYMODULE'),
  ('selenium.webdriver.ie.options',
   'c:\\users\\ngothuan\\appdata\\local\\programs\\python\\python38\\lib\\site-packages\\selenium\\webdriver\\ie\\options.py',
   'PYMODULE'),
  ('selenium.webdriver.ie.service',
   'c:\\users\\ngothuan\\appdata\\local\\programs\\python\\python38\\lib\\site-packages\\selenium\\webdriver\\ie\\service.py',
   'PYMODULE'),
  ('selenium.webdriver.ie.webdriver',
   'c:\\users\\ngothuan\\appdata\\local\\programs\\python\\python38\\lib\\site-packages\\selenium\\webdriver\\ie\\webdriver.py',
   'PYMODULE'),
  ('selenium.webdriver.remote',
   'c:\\users\\ngothuan\\appdata\\local\\programs\\python\\python38\\lib\\site-packages\\selenium\\webdriver\\remote\\__init__.py',
   'PYMODULE'),
  ('selenium.webdriver.remote.bidi_connection',
   'c:\\users\\ngothuan\\appdata\\local\\programs\\python\\python38\\lib\\site-packages\\selenium\\webdriver\\remote\\bidi_connection.py',
   'PYMODULE'),
  ('selenium.webdriver.remote.command',
   'c:\\users\\ngothuan\\appdata\\local\\programs\\python\\python38\\lib\\site-packages\\selenium\\webdriver\\remote\\command.py',
   'PYMODULE'),
  ('selenium.webdriver.remote.errorhandler',
   'c:\\users\\ngothuan\\appdata\\local\\programs\\python\\python38\\lib\\site-packages\\selenium\\webdriver\\remote\\errorhandler.py',
   'PYMODULE'),
  ('selenium.webdriver.remote.file_detector',
   'c:\\users\\ngothuan\\appdata\\local\\programs\\python\\python38\\lib\\site-packages\\selenium\\webdriver\\remote\\file_detector.py',
   'PYMODULE'),
  ('selenium.webdriver.remote.mobile',
   'c:\\users\\ngothuan\\appdata\\local\\programs\\python\\python38\\lib\\site-packages\\selenium\\webdriver\\remote\\mobile.py',
   'PYMODULE'),
  ('selenium.webdriver.remote.remote_connection',
   'c:\\users\\ngothuan\\appdata\\local\\programs\\python\\python38\\lib\\site-packages\\selenium\\webdriver\\remote\\remote_connection.py',
   'PYMODULE'),
  ('selenium.webdriver.remote.script_key',
   'c:\\users\\ngothuan\\appdata\\local\\programs\\python\\python38\\lib\\site-packages\\selenium\\webdriver\\remote\\script_key.py',
   'PYMODULE'),
  ('selenium.webdriver.remote.shadowroot',
   'c:\\users\\ngothuan\\appdata\\local\\programs\\python\\python38\\lib\\site-packages\\selenium\\webdriver\\remote\\shadowroot.py',
   'PYMODULE'),
  ('selenium.webdriver.remote.switch_to',
   'c:\\users\\ngothuan\\appdata\\local\\programs\\python\\python38\\lib\\site-packages\\selenium\\webdriver\\remote\\switch_to.py',
   'PYMODULE'),
  ('selenium.webdriver.remote.utils',
   'c:\\users\\ngothuan\\appdata\\local\\programs\\python\\python38\\lib\\site-packages\\selenium\\webdriver\\remote\\utils.py',
   'PYMODULE'),
  ('selenium.webdriver.remote.webdriver',
   'c:\\users\\ngothuan\\appdata\\local\\programs\\python\\python38\\lib\\site-packages\\selenium\\webdriver\\remote\\webdriver.py',
   'PYMODULE'),
  ('selenium.webdriver.remote.webelement',
   'c:\\users\\ngothuan\\appdata\\local\\programs\\python\\python38\\lib\\site-packages\\selenium\\webdriver\\remote\\webelement.py',
   'PYMODULE'),
  ('selenium.webdriver.safari',
   'c:\\users\\ngothuan\\appdata\\local\\programs\\python\\python38\\lib\\site-packages\\selenium\\webdriver\\safari\\__init__.py',
   'PYMODULE'),
  ('selenium.webdriver.safari.options',
   'c:\\users\\ngothuan\\appdata\\local\\programs\\python\\python38\\lib\\site-packages\\selenium\\webdriver\\safari\\options.py',
   'PYMODULE'),
  ('selenium.webdriver.safari.remote_connection',
   'c:\\users\\ngothuan\\appdata\\local\\programs\\python\\python38\\lib\\site-packages\\selenium\\webdriver\\safari\\remote_connection.py',
   'PYMODULE'),
  ('selenium.webdriver.safari.service',
   'c:\\users\\ngothuan\\appdata\\local\\programs\\python\\python38\\lib\\site-packages\\selenium\\webdriver\\safari\\service.py',
   'PYMODULE'),
  ('selenium.webdriver.safari.webdriver',
   'c:\\users\\ngothuan\\appdata\\local\\programs\\python\\python38\\lib\\site-packages\\selenium\\webdriver\\safari\\webdriver.py',
   'PYMODULE'),
  ('selenium.webdriver.support',
   'c:\\users\\ngothuan\\appdata\\local\\programs\\python\\python38\\lib\\site-packages\\selenium\\webdriver\\support\\__init__.py',
   'PYMODULE'),
  ('selenium.webdriver.support.expected_conditions',
   'c:\\users\\ngothuan\\appdata\\local\\programs\\python\\python38\\lib\\site-packages\\selenium\\webdriver\\support\\expected_conditions.py',
   'PYMODULE'),
  ('selenium.webdriver.support.relative_locator',
   'c:\\users\\ngothuan\\appdata\\local\\programs\\python\\python38\\lib\\site-packages\\selenium\\webdriver\\support\\relative_locator.py',
   'PYMODULE'),
  ('selenium.webdriver.support.select',
   'c:\\users\\ngothuan\\appdata\\local\\programs\\python\\python38\\lib\\site-packages\\selenium\\webdriver\\support\\select.py',
   'PYMODULE'),
  ('selenium.webdriver.support.ui',
   'c:\\users\\ngothuan\\appdata\\local\\programs\\python\\python38\\lib\\site-packages\\selenium\\webdriver\\support\\ui.py',
   'PYMODULE'),
  ('selenium.webdriver.support.wait',
   'c:\\users\\ngothuan\\appdata\\local\\programs\\python\\python38\\lib\\site-packages\\selenium\\webdriver\\support\\wait.py',
   'PYMODULE'),
  ('selenium.webdriver.webkitgtk',
   'c:\\users\\ngothuan\\appdata\\local\\programs\\python\\python38\\lib\\site-packages\\selenium\\webdriver\\webkitgtk\\__init__.py',
   'PYMODULE'),
  ('selenium.webdriver.webkitgtk.options',
   'c:\\users\\ngothuan\\appdata\\local\\programs\\python\\python38\\lib\\site-packages\\selenium\\webdriver\\webkitgtk\\options.py',
   'PYMODULE'),
  ('selenium.webdriver.webkitgtk.service',
   'c:\\users\\ngothuan\\appdata\\local\\programs\\python\\python38\\lib\\site-packages\\selenium\\webdriver\\webkitgtk\\service.py',
   'PYMODULE'),
  ('selenium.webdriver.webkitgtk.webdriver',
   'c:\\users\\ngothuan\\appdata\\local\\programs\\python\\python38\\lib\\site-packages\\selenium\\webdriver\\webkitgtk\\webdriver.py',
   'PYMODULE'),
  ('selenium.webdriver.wpewebkit',
   'c:\\users\\ngothuan\\appdata\\local\\programs\\python\\python38\\lib\\site-packages\\selenium\\webdriver\\wpewebkit\\__init__.py',
   'PYMODULE'),
  ('selenium.webdriver.wpewebkit.options',
   'c:\\users\\ngothuan\\appdata\\local\\programs\\python\\python38\\lib\\site-packages\\selenium\\webdriver\\wpewebkit\\options.py',
   'PYMODULE'),
  ('selenium.webdriver.wpewebkit.service',
   'c:\\users\\ngothuan\\appdata\\local\\programs\\python\\python38\\lib\\site-packages\\selenium\\webdriver\\wpewebkit\\service.py',
   'PYMODULE'),
  ('selenium.webdriver.wpewebkit.webdriver',
   'c:\\users\\ngothuan\\appdata\\local\\programs\\python\\python38\\lib\\site-packages\\selenium\\webdriver\\wpewebkit\\webdriver.py',
   'PYMODULE'),
  ('shlex',
   'c:\\users\\ngothuan\\appdata\\local\\programs\\python\\python38\\lib\\shlex.py',
   'PYMODULE'),
  ('shutil',
   'c:\\users\\ngothuan\\appdata\\local\\programs\\python\\python38\\lib\\shutil.py',
   'PYMODULE'),
  ('signal',
   'c:\\users\\ngothuan\\appdata\\local\\programs\\python\\python38\\lib\\signal.py',
   'PYMODULE'),
  ('socket',
   'c:\\users\\ngothuan\\appdata\\local\\programs\\python\\python38\\lib\\socket.py',
   'PYMODULE'),
  ('socketserver',
   'c:\\users\\ngothuan\\appdata\\local\\programs\\python\\python38\\lib\\socketserver.py',
   'PYMODULE'),
  ('socks',
   'c:\\users\\ngothuan\\appdata\\local\\programs\\python\\python38\\lib\\site-packages\\socks.py',
   'PYMODULE'),
  ('ssl',
   'c:\\users\\ngothuan\\appdata\\local\\programs\\python\\python38\\lib\\ssl.py',
   'PYMODULE'),
  ('string',
   'c:\\users\\ngothuan\\appdata\\local\\programs\\python\\python38\\lib\\string.py',
   'PYMODULE'),
  ('stringprep',
   'c:\\users\\ngothuan\\appdata\\local\\programs\\python\\python38\\lib\\stringprep.py',
   'PYMODULE'),
  ('subprocess',
   'c:\\users\\ngothuan\\appdata\\local\\programs\\python\\python38\\lib\\subprocess.py',
   'PYMODULE'),
  ('sysconfig',
   'c:\\users\\ngothuan\\appdata\\local\\programs\\python\\python38\\lib\\sysconfig.py',
   'PYMODULE'),
  ('tarfile',
   'c:\\users\\ngothuan\\appdata\\local\\programs\\python\\python38\\lib\\tarfile.py',
   'PYMODULE'),
  ('tempfile',
   'c:\\users\\ngothuan\\appdata\\local\\programs\\python\\python38\\lib\\tempfile.py',
   'PYMODULE'),
  ('textwrap',
   'c:\\users\\ngothuan\\appdata\\local\\programs\\python\\python38\\lib\\textwrap.py',
   'PYMODULE'),
  ('threading',
   'c:\\users\\ngothuan\\appdata\\local\\programs\\python\\python38\\lib\\threading.py',
   'PYMODULE'),
  ('token',
   'c:\\users\\ngothuan\\appdata\\local\\programs\\python\\python38\\lib\\token.py',
   'PYMODULE'),
  ('tokenize',
   'c:\\users\\ngothuan\\appdata\\local\\programs\\python\\python38\\lib\\tokenize.py',
   'PYMODULE'),
  ('tracemalloc',
   'c:\\users\\ngothuan\\appdata\\local\\programs\\python\\python38\\lib\\tracemalloc.py',
   'PYMODULE'),
  ('tty',
   'c:\\users\\ngothuan\\appdata\\local\\programs\\python\\python38\\lib\\tty.py',
   'PYMODULE'),
  ('typing',
   'c:\\users\\ngothuan\\appdata\\local\\programs\\python\\python38\\lib\\typing.py',
   'PYMODULE'),
  ('typing_extensions',
   'c:\\users\\ngothuan\\appdata\\local\\programs\\python\\python38\\lib\\site-packages\\typing_extensions.py',
   'PYMODULE'),
  ('unittest',
   'c:\\users\\ngothuan\\appdata\\local\\programs\\python\\python38\\lib\\unittest\\__init__.py',
   'PYMODULE'),
  ('unittest.async_case',
   'c:\\users\\ngothuan\\appdata\\local\\programs\\python\\python38\\lib\\unittest\\async_case.py',
   'PYMODULE'),
  ('unittest.case',
   'c:\\users\\ngothuan\\appdata\\local\\programs\\python\\python38\\lib\\unittest\\case.py',
   'PYMODULE'),
  ('unittest.loader',
   'c:\\users\\ngothuan\\appdata\\local\\programs\\python\\python38\\lib\\unittest\\loader.py',
   'PYMODULE'),
  ('unittest.main',
   'c:\\users\\ngothuan\\appdata\\local\\programs\\python\\python38\\lib\\unittest\\main.py',
   'PYMODULE'),
  ('unittest.result',
   'c:\\users\\ngothuan\\appdata\\local\\programs\\python\\python38\\lib\\unittest\\result.py',
   'PYMODULE'),
  ('unittest.runner',
   'c:\\users\\ngothuan\\appdata\\local\\programs\\python\\python38\\lib\\unittest\\runner.py',
   'PYMODULE'),
  ('unittest.signals',
   'c:\\users\\ngothuan\\appdata\\local\\programs\\python\\python38\\lib\\unittest\\signals.py',
   'PYMODULE'),
  ('unittest.suite',
   'c:\\users\\ngothuan\\appdata\\local\\programs\\python\\python38\\lib\\unittest\\suite.py',
   'PYMODULE'),
  ('unittest.util',
   'c:\\users\\ngothuan\\appdata\\local\\programs\\python\\python38\\lib\\unittest\\util.py',
   'PYMODULE'),
  ('urllib',
   'c:\\users\\ngothuan\\appdata\\local\\programs\\python\\python38\\lib\\urllib\\__init__.py',
   'PYMODULE'),
  ('urllib.error',
   'c:\\users\\ngothuan\\appdata\\local\\programs\\python\\python38\\lib\\urllib\\error.py',
   'PYMODULE'),
  ('urllib.parse',
   'c:\\users\\ngothuan\\appdata\\local\\programs\\python\\python38\\lib\\urllib\\parse.py',
   'PYMODULE'),
  ('urllib.request',
   'c:\\users\\ngothuan\\appdata\\local\\programs\\python\\python38\\lib\\urllib\\request.py',
   'PYMODULE'),
  ('urllib.response',
   'c:\\users\\ngothuan\\appdata\\local\\programs\\python\\python38\\lib\\urllib\\response.py',
   'PYMODULE'),
  ('urllib3',
   'c:\\users\\ngothuan\\appdata\\local\\programs\\python\\python38\\lib\\site-packages\\urllib3\\__init__.py',
   'PYMODULE'),
  ('urllib3._base_connection',
   'c:\\users\\ngothuan\\appdata\\local\\programs\\python\\python38\\lib\\site-packages\\urllib3\\_base_connection.py',
   'PYMODULE'),
  ('urllib3._collections',
   'c:\\users\\ngothuan\\appdata\\local\\programs\\python\\python38\\lib\\site-packages\\urllib3\\_collections.py',
   'PYMODULE'),
  ('urllib3._request_methods',
   'c:\\users\\ngothuan\\appdata\\local\\programs\\python\\python38\\lib\\site-packages\\urllib3\\_request_methods.py',
   'PYMODULE'),
  ('urllib3._version',
   'c:\\users\\ngothuan\\appdata\\local\\programs\\python\\python38\\lib\\site-packages\\urllib3\\_version.py',
   'PYMODULE'),
  ('urllib3.connection',
   'c:\\users\\ngothuan\\appdata\\local\\programs\\python\\python38\\lib\\site-packages\\urllib3\\connection.py',
   'PYMODULE'),
  ('urllib3.connectionpool',
   'c:\\users\\ngothuan\\appdata\\local\\programs\\python\\python38\\lib\\site-packages\\urllib3\\connectionpool.py',
   'PYMODULE'),
  ('urllib3.contrib',
   'c:\\users\\ngothuan\\appdata\\local\\programs\\python\\python38\\lib\\site-packages\\urllib3\\contrib\\__init__.py',
   'PYMODULE'),
  ('urllib3.contrib.emscripten',
   'c:\\users\\ngothuan\\appdata\\local\\programs\\python\\python38\\lib\\site-packages\\urllib3\\contrib\\emscripten\\__init__.py',
   'PYMODULE'),
  ('urllib3.contrib.emscripten.connection',
   'c:\\users\\ngothuan\\appdata\\local\\programs\\python\\python38\\lib\\site-packages\\urllib3\\contrib\\emscripten\\connection.py',
   'PYMODULE'),
  ('urllib3.contrib.emscripten.fetch',
   'c:\\users\\ngothuan\\appdata\\local\\programs\\python\\python38\\lib\\site-packages\\urllib3\\contrib\\emscripten\\fetch.py',
   'PYMODULE'),
  ('urllib3.contrib.emscripten.request',
   'c:\\users\\ngothuan\\appdata\\local\\programs\\python\\python38\\lib\\site-packages\\urllib3\\contrib\\emscripten\\request.py',
   'PYMODULE'),
  ('urllib3.contrib.emscripten.response',
   'c:\\users\\ngothuan\\appdata\\local\\programs\\python\\python38\\lib\\site-packages\\urllib3\\contrib\\emscripten\\response.py',
   'PYMODULE'),
  ('urllib3.contrib.pyopenssl',
   'c:\\users\\ngothuan\\appdata\\local\\programs\\python\\python38\\lib\\site-packages\\urllib3\\contrib\\pyopenssl.py',
   'PYMODULE'),
  ('urllib3.contrib.socks',
   'c:\\users\\ngothuan\\appdata\\local\\programs\\python\\python38\\lib\\site-packages\\urllib3\\contrib\\socks.py',
   'PYMODULE'),
  ('urllib3.exceptions',
   'c:\\users\\ngothuan\\appdata\\local\\programs\\python\\python38\\lib\\site-packages\\urllib3\\exceptions.py',
   'PYMODULE'),
  ('urllib3.fields',
   'c:\\users\\ngothuan\\appdata\\local\\programs\\python\\python38\\lib\\site-packages\\urllib3\\fields.py',
   'PYMODULE'),
  ('urllib3.filepost',
   'c:\\users\\ngothuan\\appdata\\local\\programs\\python\\python38\\lib\\site-packages\\urllib3\\filepost.py',
   'PYMODULE'),
  ('urllib3.poolmanager',
   'c:\\users\\ngothuan\\appdata\\local\\programs\\python\\python38\\lib\\site-packages\\urllib3\\poolmanager.py',
   'PYMODULE'),
  ('urllib3.response',
   'c:\\users\\ngothuan\\appdata\\local\\programs\\python\\python38\\lib\\site-packages\\urllib3\\response.py',
   'PYMODULE'),
  ('urllib3.util',
   'c:\\users\\ngothuan\\appdata\\local\\programs\\python\\python38\\lib\\site-packages\\urllib3\\util\\__init__.py',
   'PYMODULE'),
  ('urllib3.util.connection',
   'c:\\users\\ngothuan\\appdata\\local\\programs\\python\\python38\\lib\\site-packages\\urllib3\\util\\connection.py',
   'PYMODULE'),
  ('urllib3.util.proxy',
   'c:\\users\\ngothuan\\appdata\\local\\programs\\python\\python38\\lib\\site-packages\\urllib3\\util\\proxy.py',
   'PYMODULE'),
  ('urllib3.util.request',
   'c:\\users\\ngothuan\\appdata\\local\\programs\\python\\python38\\lib\\site-packages\\urllib3\\util\\request.py',
   'PYMODULE'),
  ('urllib3.util.response',
   'c:\\users\\ngothuan\\appdata\\local\\programs\\python\\python38\\lib\\site-packages\\urllib3\\util\\response.py',
   'PYMODULE'),
  ('urllib3.util.retry',
   'c:\\users\\ngothuan\\appdata\\local\\programs\\python\\python38\\lib\\site-packages\\urllib3\\util\\retry.py',
   'PYMODULE'),
  ('urllib3.util.ssl_',
   'c:\\users\\ngothuan\\appdata\\local\\programs\\python\\python38\\lib\\site-packages\\urllib3\\util\\ssl_.py',
   'PYMODULE'),
  ('urllib3.util.ssl_match_hostname',
   'c:\\users\\ngothuan\\appdata\\local\\programs\\python\\python38\\lib\\site-packages\\urllib3\\util\\ssl_match_hostname.py',
   'PYMODULE'),
  ('urllib3.util.ssltransport',
   'c:\\users\\ngothuan\\appdata\\local\\programs\\python\\python38\\lib\\site-packages\\urllib3\\util\\ssltransport.py',
   'PYMODULE'),
  ('urllib3.util.timeout',
   'c:\\users\\ngothuan\\appdata\\local\\programs\\python\\python38\\lib\\site-packages\\urllib3\\util\\timeout.py',
   'PYMODULE'),
  ('urllib3.util.url',
   'c:\\users\\ngothuan\\appdata\\local\\programs\\python\\python38\\lib\\site-packages\\urllib3\\util\\url.py',
   'PYMODULE'),
  ('urllib3.util.util',
   'c:\\users\\ngothuan\\appdata\\local\\programs\\python\\python38\\lib\\site-packages\\urllib3\\util\\util.py',
   'PYMODULE'),
  ('urllib3.util.wait',
   'c:\\users\\ngothuan\\appdata\\local\\programs\\python\\python38\\lib\\site-packages\\urllib3\\util\\wait.py',
   'PYMODULE'),
  ('uu',
   'c:\\users\\ngothuan\\appdata\\local\\programs\\python\\python38\\lib\\uu.py',
   'PYMODULE'),
  ('uuid',
   'c:\\users\\ngothuan\\appdata\\local\\programs\\python\\python38\\lib\\uuid.py',
   'PYMODULE'),
  ('webbrowser',
   'c:\\users\\ngothuan\\appdata\\local\\programs\\python\\python38\\lib\\webbrowser.py',
   'PYMODULE'),
  ('xml',
   'c:\\users\\ngothuan\\appdata\\local\\programs\\python\\python38\\lib\\xml\\__init__.py',
   'PYMODULE'),
  ('xml.dom',
   'c:\\users\\ngothuan\\appdata\\local\\programs\\python\\python38\\lib\\xml\\dom\\__init__.py',
   'PYMODULE'),
  ('xml.dom.NodeFilter',
   'c:\\users\\ngothuan\\appdata\\local\\programs\\python\\python38\\lib\\xml\\dom\\NodeFilter.py',
   'PYMODULE'),
  ('xml.dom.domreg',
   'c:\\users\\ngothuan\\appdata\\local\\programs\\python\\python38\\lib\\xml\\dom\\domreg.py',
   'PYMODULE'),
  ('xml.dom.expatbuilder',
   'c:\\users\\ngothuan\\appdata\\local\\programs\\python\\python38\\lib\\xml\\dom\\expatbuilder.py',
   'PYMODULE'),
  ('xml.dom.minicompat',
   'c:\\users\\ngothuan\\appdata\\local\\programs\\python\\python38\\lib\\xml\\dom\\minicompat.py',
   'PYMODULE'),
  ('xml.dom.minidom',
   'c:\\users\\ngothuan\\appdata\\local\\programs\\python\\python38\\lib\\xml\\dom\\minidom.py',
   'PYMODULE'),
  ('xml.dom.pulldom',
   'c:\\users\\ngothuan\\appdata\\local\\programs\\python\\python38\\lib\\xml\\dom\\pulldom.py',
   'PYMODULE'),
  ('xml.dom.xmlbuilder',
   'c:\\users\\ngothuan\\appdata\\local\\programs\\python\\python38\\lib\\xml\\dom\\xmlbuilder.py',
   'PYMODULE'),
  ('xml.parsers',
   'c:\\users\\ngothuan\\appdata\\local\\programs\\python\\python38\\lib\\xml\\parsers\\__init__.py',
   'PYMODULE'),
  ('xml.parsers.expat',
   'c:\\users\\ngothuan\\appdata\\local\\programs\\python\\python38\\lib\\xml\\parsers\\expat.py',
   'PYMODULE'),
  ('xml.sax',
   'c:\\users\\ngothuan\\appdata\\local\\programs\\python\\python38\\lib\\xml\\sax\\__init__.py',
   'PYMODULE'),
  ('xml.sax._exceptions',
   'c:\\users\\ngothuan\\appdata\\local\\programs\\python\\python38\\lib\\xml\\sax\\_exceptions.py',
   'PYMODULE'),
  ('xml.sax.expatreader',
   'c:\\users\\ngothuan\\appdata\\local\\programs\\python\\python38\\lib\\xml\\sax\\expatreader.py',
   'PYMODULE'),
  ('xml.sax.handler',
   'c:\\users\\ngothuan\\appdata\\local\\programs\\python\\python38\\lib\\xml\\sax\\handler.py',
   'PYMODULE'),
  ('xml.sax.saxutils',
   'c:\\users\\ngothuan\\appdata\\local\\programs\\python\\python38\\lib\\xml\\sax\\saxutils.py',
   'PYMODULE'),
  ('xml.sax.xmlreader',
   'c:\\users\\ngothuan\\appdata\\local\\programs\\python\\python38\\lib\\xml\\sax\\xmlreader.py',
   'PYMODULE'),
  ('xmlrpc',
   'c:\\users\\ngothuan\\appdata\\local\\programs\\python\\python38\\lib\\xmlrpc\\__init__.py',
   'PYMODULE'),
  ('xmlrpc.client',
   'c:\\users\\ngothuan\\appdata\\local\\programs\\python\\python38\\lib\\xmlrpc\\client.py',
   'PYMODULE'),
  ('zipfile',
   'c:\\users\\ngothuan\\appdata\\local\\programs\\python\\python38\\lib\\zipfile.py',
   'PYMODULE'),
  ('zipimport',
   'c:\\users\\ngothuan\\appdata\\local\\programs\\python\\python38\\lib\\zipimport.py',
   'PYMODULE')])
